{
    "_id": "HZ3oBBdEnsH3fWrm",
    "data": {
        "boosts": {
            "0": {
                "value": [
                    "dex",
                    "int"
                ]
            },
            "1": {
                "value": [
                    "cha",
                    "con",
                    "dex",
                    "int",
                    "str",
                    "wis"
                ]
            }
        },
        "description": {
            "value": "<p>You've dedicated your life to unraveling the secrets of the ancient Shory Empire, either through meticulous research or by traveling into dangerous and distant ruins to track down long-lost artifacts.</p>\n<p>Choose two ability boosts. One must be to <strong>Dexterity</strong> or <strong>Intelligence</strong>, and one is a free ability boost.</p>\n<p>You're trained in the Crafting skill and the Shory Lore skill. You gain the Specialty Crafting skill feat.</p>\n<hr />\n<ul>\n<li>@Compendium[pf2e.feats-srd.Specialty Crafting (Alchemy)]{Specialty Crafting (Alchemy)}</li>\n<li>@Compendium[pf2e.feats-srd.Specialty Crafting (Artistry)]{Specialty Crafting (Artistry)}</li>\n<li>@Compendium[pf2e.feats-srd.Specialty Crafting (Blacksmithing)]{Specialty Crafting (Blacksmithing)}</li>\n<li>@Compendium[pf2e.feats-srd.Specialty Crafting (Bookmaking)]{Specialty Crafting (Bookmaking)}</li>\n<li>@Compendium[pf2e.feats-srd.Specialty Crafting (Glassmaking)]{Specialty Crafting (Glassmaking)}</li>\n<li>@Compendium[pf2e.feats-srd.Specialty Crafting (Leatherworking)]{Specialty Crafting (Leatherworking)}</li>\n<li>@Compendium[pf2e.feats-srd.Specialty Crafting (Pottery)]{Specialty Crafting (Pottery)}</li>\n<li>@Compendium[pf2e.feats-srd.Specialty Crafting (Shipbuilding)]{Specialty Crafting (Shipbuilding)}</li>\n<li>@Compendium[pf2e.feats-srd.Specialty Crafting (Stonemasonry)]{Specialty Crafting (Stonemasonry)}</li>\n<li>@Compendium[pf2e.feats-srd.Specialty Crafting (Tailoring)]{Specialty Crafting (Tailoring)}</li>\n<li>@Compendium[pf2e.feats-srd.Specialty Crafting (Weaving)]{Specialty Crafting (Weaving)}</li>\n<li>@Compendium[pf2e.feats-srd.Specialty Crafting (Woodworking)]{Specialty Crafting (Woodworking)}</li>\n</ul>"
        },
        "items": {
            "0oggr": {
                "id": "XVnpntqV6w94PoOb",
                "img": "systems/pf2e/icons/features/feats/feats.webp",
                "level": 1,
                "name": "Specialty Crafting (Alchemy)",
                "pack": "pf2e.feats-srd"
            },
            "1qixs": {
                "id": "YmzLnj4ojlf9INNP",
                "img": "systems/pf2e/icons/features/feats/feats.webp",
                "level": 1,
                "name": "Specialty Crafting (Glassmaking)",
                "pack": "pf2e.feats-srd"
            },
            "5z0y0": {
                "id": "59FN13nU6agKT4oa",
                "img": "systems/pf2e/icons/features/feats/feats.webp",
                "level": 1,
                "name": "Specialty Crafting (Bookmaking)",
                "pack": "pf2e.feats-srd"
            },
            "9q5rl": {
                "id": "TWkwy0uQvTGlgEFG",
                "img": "systems/pf2e/icons/features/feats/feats.webp",
                "level": 1,
                "name": "Specialty Crafting (Stonemasonry)",
                "pack": "pf2e.feats-srd"
            },
            "bwltt": {
                "id": "8XC2xJ7Y1xlr6Xor",
                "img": "systems/pf2e/icons/features/feats/feats.webp",
                "level": 1,
                "name": "Specialty Crafting (Pottery)",
                "pack": "pf2e.feats-srd"
            },
            "dl8b4": {
                "id": "22HUfCajd6IkATOR",
                "img": "systems/pf2e/icons/features/feats/feats.webp",
                "level": 1,
                "name": "Specialty Crafting (Artistry)",
                "pack": "pf2e.feats-srd"
            },
            "ml3ij": {
                "id": "dTjzxCy9pku5gL0F",
                "img": "systems/pf2e/icons/features/feats/feats.webp",
                "level": 1,
                "name": "Specialty Crafting (Weaving)",
                "pack": "pf2e.feats-srd"
            },
            "oh2dp": {
                "id": "tbIMWrIRI9P9cubM",
                "img": "systems/pf2e/icons/features/feats/feats.webp",
                "level": 1,
                "name": "Specialty Crafting (Shipbuilding)",
                "pack": "pf2e.feats-srd"
            },
            "sm77g": {
                "id": "WddEyALYHfpeUjZB",
                "img": "systems/pf2e/icons/features/feats/feats.webp",
                "level": 1,
                "name": "Specialty Crafting (Leatherworking)",
                "pack": "pf2e.feats-srd"
            },
            "v0ow8": {
                "id": "S8mPrjJjuObotmjZ",
                "img": "systems/pf2e/icons/features/feats/feats.webp",
                "level": 1,
                "name": "Specialty Crafting (Blacksmithing)",
                "pack": "pf2e.feats-srd"
            },
            "xkpc7": {
                "id": "B06QKNvKYqxYGwPU",
                "img": "systems/pf2e/icons/features/feats/feats.webp",
                "level": 1,
                "name": "Specialty Crafting (Tailoring)",
                "pack": "pf2e.feats-srd"
            },
            "xnsem": {
                "id": "YvoiGWZhtbHH6NMF",
                "img": "systems/pf2e/icons/features/feats/feats.webp",
                "level": 1,
                "name": "Specialty Crafting (Woodworking)",
                "pack": "pf2e.feats-srd"
            }
        },
        "rules": [],
        "source": {
            "value": "Pathfinder Lost Omens: World Guide"
        },
        "trainedLore": "Shory Lore",
        "trainedSkills": {
            "value": [
                "cra"
            ]
        },
        "traits": {
            "custom": "",
            "rarity": {
                "value": "common"
            },
            "value": []
        }
    },
    "effects": [],
    "flags": {},
    "img": "systems/pf2e/icons/default-icons/background.svg",
    "name": "Shory Seeker",
    "type": "background"
}
