{
    "_id": "9o8DDJMWoaZiC5N2",
    "data": {
        "baseItem": null,
        "brokenThreshold": {
            "value": 0
        },
        "bulkCapacity": {
            "value": ""
        },
        "collapsed": {
            "value": false
        },
        "containerId": {
            "value": null
        },
        "description": {
            "value": "<p>This heavy drum is engraved along the sides with images of centaurs in fierce combat. The drum grants you a +3 item bonus on Performance checks you make using the drum. Additionally, it imparts the rhythms of two songs upon your mind as soon as you touch it. One is a fast marching cadence; the other is a frenetic ritual dance. Each song has a different activation.</p>\n<hr />\n<p><strong>Activate</strong> <span class=\"pf2-icon\">2</span> Interact;</p>\n<p><strong>Frequency</strong> once per minute;</p>\n<p><strong>Effect</strong> Dozens of spectral centaurs burst from the drum and stampede in a <span data-pf2-effect-area=\"cone\" data-pf2-distance=\"60\">60-foot cone</span>. The stampede deals [[/r {7d10}[force]]]{7d10 force damage} (<span data-pf2-check=\"reflex\" data-pf2-traits=\"uncommon,conjuration,earth,magical,damaging-effect\" data-pf2-label=\"Spectral Centaur Stampede DC\" data-pf2-dc=\"43\" data-pf2-show-dc=\"all\">basic Reflex</span>).</p>\n<hr />\n<p><strong>Activate</strong> <span class=\"pf2-icon\">2</span> Interact;</p>\n<p><strong>Frequency</strong> once per day;</p>\n<p><strong>Effect</strong> The drum casts a <span data-pf2-check=\"reflex\" data-pf2-traits=\"uncommon,conjuration,earth,magical,damaging-effect\" data-pf2-label=\"Earthquake DC\" data-pf2-dc=\"43\" data-pf2-show-dc=\"all\">Reflex</span> <em>@Compendium[pf2e.spells-srd.Earthquake]{Earthquake}</em> spell.</p>\n<hr />\n<p><strong>Craft Requirements</strong> You are a centaur.</p>"
        },
        "equipped": {
            "value": false
        },
        "equippedBulk": {
            "value": ""
        },
        "hardness": {
            "value": 0
        },
        "hp": {
            "value": 0
        },
        "identification": {
            "misidentified": {},
            "status": "identified",
            "unidentified": {
                "data": {
                    "description": {
                        "value": ""
                    }
                },
                "img": "",
                "name": ""
            }
        },
        "invested": {
            "value": null
        },
        "level": {
            "value": 20
        },
        "maxHp": {
            "value": 0
        },
        "negateBulk": {
            "value": "0"
        },
        "preciousMaterial": {
            "value": null
        },
        "preciousMaterialGrade": {
            "value": null
        },
        "price": {
            "value": "60000 gp"
        },
        "quantity": {
            "value": 1
        },
        "rules": [
            {
                "key": "FlatModifier",
                "selector": "performance",
                "type": "item",
                "value": 3
            }
        ],
        "size": {
            "value": "med"
        },
        "source": {
            "value": "Pathfinder Lost Omens: The Grand Bazaar"
        },
        "stackGroup": {
            "value": ""
        },
        "traits": {
            "custom": "",
            "rarity": {
                "value": "uncommon"
            },
            "value": [
                "conjuration",
                "earth",
                "magical"
            ]
        },
        "usage": {
            "value": "held-in-two-hands"
        },
        "weight": {
            "value": "1"
        }
    },
    "effects": [],
    "flags": {},
    "img": "systems/pf2e/icons/default-icons/equipment.svg",
    "name": "Drum of Upheaval",
    "type": "equipment"
}
