{
    "_id": "XJZTTkI3ERnu6iFf",
    "data": {
        "baseItem": null,
        "brokenThreshold": {
            "value": 0
        },
        "bulkCapacity": {
            "value": ""
        },
        "collapsed": {
            "value": false
        },
        "containerId": {
            "value": null
        },
        "description": {
            "value": "<p>A sheen of red crosses the surface of this star-shaped goldstone medallion when the light hits it. The affixed armor or weapon is warm to the touch. The spell attack roll of any spell cast by Activating this item is [[/r 1d20+19 #spell attack roll]]{+19}, and the spell DC is 29.</p>\n<ul>\n<li><strong>Armor</strong> You gain resistance 5 to fire.</li>\n<li><strong>Weapon</strong> After you cast a fire spell by Activating the star, your Strikes with the weapon deal an additional 1d6 fire damage until the end of your next turn.</li>\n</ul>\n<hr />\n<p><strong>Activate</strong> Cast a Spell;</p>\n<p><strong>Effect</strong> You cast <em>@Compendium[pf2e.spells-srd.Produce Flame]{Produce Flame}</em>.</p>\n<hr />\n<p><strong>Activate</strong> Cast a Spell;</p>\n<p><strong>Frequency</strong> once per day;</p>\n<p><strong>Effect</strong> You cast 4th-level <em>@Compendium[pf2e.spells-srd.Fireball]{Fireball}</em>.</p>\n<p><span data-pf2-check=\"reflex\" data-pf2-traits=\"damaging-effect,evocation,fire,spell,magical,spellheart\" data-pf2-label=\"Flaming Star Spell DC\" data-pf2-dc=\"29\" data-pf2-show-dc=\"all\">basic Reflex</span></p>\n<hr />\n<p><strong>Activate</strong> Cast a Spell;</p>\n<p><strong>Frequency</strong> once per day;</p>\n<p><strong>Effect</strong> You cast <em>@Compendium[pf2e.spells-srd.Wall of Fire]{Wall of Fire}</em>.</p>"
        },
        "equipped": {
            "value": false
        },
        "equippedBulk": {
            "value": ""
        },
        "hardness": {
            "value": 0
        },
        "hp": {
            "value": 0
        },
        "identification": {
            "misidentified": {},
            "status": "identified",
            "unidentified": {
                "data": {
                    "description": {
                        "value": ""
                    }
                },
                "img": "",
                "name": ""
            }
        },
        "invested": {
            "value": null
        },
        "level": {
            "value": 12
        },
        "maxHp": {
            "value": 0
        },
        "negateBulk": {
            "value": "0"
        },
        "preciousMaterial": {
            "value": null
        },
        "preciousMaterialGrade": {
            "value": null
        },
        "price": {
            "value": "1750 gp"
        },
        "quantity": {
            "value": 1
        },
        "rules": [],
        "size": {
            "value": "med"
        },
        "source": {
            "value": "Pathfinder Secrets of Magic"
        },
        "stackGroup": {
            "value": ""
        },
        "traits": {
            "custom": "",
            "rarity": {
                "value": "common"
            },
            "value": [
                "evocation",
                "fire",
                "magical",
                "spellheart"
            ]
        },
        "usage": {
            "value": "held-in-one-hand"
        },
        "weight": {
            "value": "-"
        }
    },
    "effects": [],
    "flags": {},
    "img": "systems/pf2e/icons/default-icons/equipment.svg",
    "name": "Flaming Star (Major)",
    "type": "equipment"
}
