{
    "_id": "dABsOA9Qiy0nkGgV",
    "data": {
        "baseItem": null,
        "brokenThreshold": {
            "value": 0
        },
        "bulkCapacity": {
            "value": ""
        },
        "collapsed": {
            "value": false
        },
        "containerId": {
            "value": null
        },
        "description": {
            "value": "<p>This amulet bears the true name of a single creature with a level no higher than the item's level. These amulets are typically made of gold and engraved, but could be made of anything, including simple clay. The name is clearly visible, though only to you, and only while you have the amulet invested.</p>\n<p>If you can read the language in which the name is written, that creature always takes the effects of <em>invoke true name</em> against your spells (with a spell level equal to half the item's level, rounded up). In addition, when the creature uses any magical effect against you, you can immediately attempt to counteract it using Arcana, Nature, Occult, or Religion for the counteract check and the true name amulet's level to determine the counteract level. Legendary amulets bearing the true names of creatures of level 21+ may exist.</p>"
        },
        "equipped": {
            "value": false
        },
        "equippedBulk": {
            "value": ""
        },
        "hardness": {
            "value": 0
        },
        "hp": {
            "value": 0
        },
        "identification": {
            "misidentified": {},
            "status": "identified",
            "unidentified": {
                "data": {
                    "description": {
                        "value": ""
                    }
                },
                "img": "",
                "name": ""
            }
        },
        "invested": {
            "value": null
        },
        "level": {
            "value": 15
        },
        "maxHp": {
            "value": 0
        },
        "negateBulk": {
            "value": "0"
        },
        "preciousMaterial": {
            "value": null
        },
        "preciousMaterialGrade": {
            "value": null
        },
        "price": {
            "value": "5500 gp"
        },
        "quantity": {
            "value": 1
        },
        "rules": [],
        "size": {
            "value": "med"
        },
        "source": {
            "value": "Pathfinder Secrets of Magic"
        },
        "stackGroup": {
            "value": ""
        },
        "traits": {
            "custom": "",
            "rarity": {
                "value": "rare"
            },
            "value": [
                "invested",
                "magical"
            ]
        },
        "usage": {
            "value": "wornamulet"
        },
        "weight": {
            "value": "-"
        }
    },
    "effects": [],
    "flags": {},
    "img": "systems/pf2e/icons/default-icons/equipment.svg",
    "name": "True Name Amulet (Greater)",
    "type": "equipment"
}
