{
    "_id": "3M3ZDW3MdfGLTZMC",
    "data": {
        "baseItem": null,
        "brokenThreshold": {
            "value": 0
        },
        "bulkCapacity": {
            "value": ""
        },
        "collapsed": {
            "value": false
        },
        "containerId": {
            "value": null
        },
        "description": {
            "value": "<p>This chime's carvings depict skulls and other grim icons. When activated, it creates an aura of <em>@Compendium[pf2e.spells-srd.Fear]{Fear}</em> in a <span data-pf2-effect-area=\"emanation\" data-pf2-distance=\"5\">5-foot emanation</span> for 1 round. Creatures in the aura must attempt a <span data-pf2-check=\"will\" data-pf2-traits=\"evocation,magical,uncommon,emotion,enchantment,fear,mental\" data-pf2-label=\"Warcaller's Chime of Dread DC\" data-pf2-dc=\"27\" data-pf2-show-dc=\"all\">Will</span> save. On a failure, they become @Compendium[pf2e.conditionitems.Frightened]{Frightened 1} (@Compendium[pf2e.conditionitems.Frightened]{Frightened 2} on a critical failure). Affected creatures can't reduce their frightened condition below frightened 1 while the chime is ringing. You can Sustain the Activation to sustain the aura, up to a total of 5 rounds. This chime can be used only once per day, whether or not you Sustain the aura.</p>"
        },
        "equipped": {
            "value": false
        },
        "equippedBulk": {
            "value": ""
        },
        "hardness": {
            "value": 0
        },
        "hp": {
            "value": 0
        },
        "identification": {
            "misidentified": {},
            "status": "identified",
            "unidentified": {
                "data": {
                    "description": {
                        "value": ""
                    }
                },
                "img": "",
                "name": ""
            }
        },
        "invested": {
            "value": null
        },
        "level": {
            "value": 10
        },
        "maxHp": {
            "value": 0
        },
        "negateBulk": {
            "value": "0"
        },
        "preciousMaterial": {
            "value": null
        },
        "preciousMaterialGrade": {
            "value": null
        },
        "price": {
            "value": "1000 gp"
        },
        "quantity": {
            "value": 1
        },
        "rules": [],
        "size": {
            "value": "med"
        },
        "source": {
            "value": "Pathfinder #170: Spoken on the Song Wind"
        },
        "stackGroup": {
            "value": ""
        },
        "traits": {
            "custom": "",
            "rarity": {
                "value": "uncommon"
            },
            "value": [
                "evocation",
                "magical"
            ]
        },
        "usage": {
            "value": "held-in-one-hand"
        },
        "weight": {
            "value": "L"
        }
    },
    "effects": [],
    "flags": {},
    "img": "systems/pf2e/icons/default-icons/equipment.svg",
    "name": "Warcaller's Chime of Dread",
    "type": "equipment"
}
