{
    "_id": "4DPuCgAisPyphiMN",
    "data": {
        "abilities": {
            "cha": {
                "mod": 4
            },
            "con": {
                "mod": 2
            },
            "dex": {
                "mod": 1
            },
            "int": {
                "mod": 0
            },
            "str": {
                "mod": 0
            },
            "wis": {
                "mod": 3
            }
        },
        "attributes": {
            "ac": {
                "details": "",
                "value": 16
            },
            "allSaves": {
                "value": ""
            },
            "hp": {
                "details": "",
                "max": 28,
                "temp": 0,
                "value": 28
            },
            "initiative": {
                "ability": "perception"
            },
            "perception": {
                "value": 8
            },
            "shield": {
                "ac": 0,
                "brokenThreshold": "0",
                "hardness": 0,
                "max": "0",
                "value": 0
            },
            "speed": {
                "otherSpeeds": [],
                "value": "25"
            }
        },
        "details": {
            "alignment": {
                "value": "NE"
            },
            "blurb": "",
            "creatureType": "",
            "level": {
                "value": 2
            },
            "privateNotes": "",
            "publicNotes": "",
            "source": {
                "value": "Pathfinder Bounty #3: Shadows and Scarecrows"
            }
        },
        "resources": {
            "focus": {
                "max": 1,
                "value": 1
            }
        },
        "saves": {
            "fortitude": {
                "saveDetail": "",
                "value": 7
            },
            "reflex": {
                "saveDetail": "",
                "value": 6
            },
            "will": {
                "saveDetail": "",
                "value": 10
            }
        },
        "traits": {
            "ci": [],
            "di": {
                "custom": "",
                "value": []
            },
            "dr": [],
            "dv": [],
            "languages": {
                "custom": "",
                "selected": [],
                "value": [
                    "common",
                    "shadowtongue"
                ]
            },
            "rarity": {
                "value": "unique"
            },
            "senses": {
                "value": "low-light vision"
            },
            "size": {
                "value": "med"
            },
            "traits": {
                "custom": "",
                "value": [
                    "human",
                    "humanoid"
                ]
            }
        }
    },
    "effects": [],
    "flags": {},
    "img": "systems/pf2e/icons/default-icons/npc.svg",
    "items": [
        {
            "_id": "8sIvHO4KXSKpApOY",
            "data": {
                "autoHeightenLevel": {
                    "value": null
                },
                "description": {
                    "value": ""
                },
                "displayLevels": {
                    "0": false,
                    "1": false
                },
                "item": {
                    "value": 0
                },
                "prepared": {
                    "value": "prepared"
                },
                "proficiency": {
                    "value": 0
                },
                "rules": [],
                "showSlotlessLevels": {
                    "value": true
                },
                "showUnpreparedSpells": {
                    "value": false
                },
                "signatureSpells": {
                    "value": []
                },
                "slots": {
                    "slot0": {
                        "max": 5,
                        "prepared": {
                            "0": {
                                "id": "ASu3qmJKE5NpxnUO"
                            },
                            "1": {
                                "id": "8KeQ5vAR6awbPvR9"
                            },
                            "2": {
                                "id": "Kkv31g1pqr8zTqfB"
                            },
                            "3": {
                                "id": "cBTG37mFOpldni0d"
                            },
                            "4": {
                                "id": "yF3ufM63gGXkHK5x"
                            }
                        },
                        "value": 0
                    },
                    "slot1": {
                        "max": 8,
                        "prepared": {
                            "0": {
                                "id": "QIe6a9K01HggJnti"
                            },
                            "1": {
                                "id": "71dIGYZunul6sXxT"
                            },
                            "10": {
                                "id": "OVCFowsheUjMWPgQ"
                            },
                            "11": {
                                "id": "DnlYkV0BMPghG6ld"
                            },
                            "2": {
                                "id": "71dIGYZunul6sXxT"
                            },
                            "3": {
                                "id": "71dIGYZunul6sXxT"
                            },
                            "4": {
                                "id": "71dIGYZunul6sXxT"
                            },
                            "5": {
                                "id": "71dIGYZunul6sXxT"
                            },
                            "6": {
                                "id": "LHJasYB4J1jhasfs"
                            },
                            "7": {
                                "id": "N5GFsVk17rh8tJ0V"
                            },
                            "8": {
                                "id": "AfWsemUwZbDQT10h"
                            },
                            "9": {
                                "id": "YZU0KOUq8og8R8ZA"
                            }
                        },
                        "value": 0
                    },
                    "slot10": {
                        "max": 0,
                        "prepared": [],
                        "value": 0
                    },
                    "slot11": {
                        "max": 0,
                        "prepared": [],
                        "value": 0
                    },
                    "slot2": {
                        "max": 0,
                        "prepared": [],
                        "value": 0
                    },
                    "slot3": {
                        "max": 0,
                        "prepared": [],
                        "value": 0
                    },
                    "slot4": {
                        "max": 0,
                        "prepared": [],
                        "value": 0
                    },
                    "slot5": {
                        "max": 0,
                        "prepared": [],
                        "value": 0
                    },
                    "slot6": {
                        "max": 0,
                        "prepared": [],
                        "value": 0
                    },
                    "slot7": {
                        "max": 0,
                        "prepared": [],
                        "value": 0
                    },
                    "slot8": {
                        "max": 0,
                        "prepared": [],
                        "value": 0
                    },
                    "slot9": {
                        "max": 0,
                        "prepared": [],
                        "value": 0
                    }
                },
                "slug": null,
                "source": {
                    "value": ""
                },
                "spelldc": {
                    "dc": 18,
                    "mod": 0,
                    "value": 10
                },
                "tradition": {
                    "value": "divine"
                },
                "traits": {
                    "custom": "",
                    "rarity": {
                        "value": "common"
                    },
                    "value": []
                }
            },
            "effects": [],
            "flags": {},
            "img": "systems/pf2e/icons/default-icons/spellcastingEntry.svg",
            "name": "Divine Prepared Spells",
            "sort": 100000,
            "type": "spellcastingEntry"
        },
        {
            "_id": "GI2I0P5iImIdFe18",
            "data": {
                "autoHeightenLevel": {
                    "value": null
                },
                "description": {
                    "value": ""
                },
                "displayLevels": {},
                "prepared": {
                    "flexible": false,
                    "value": "focus"
                },
                "proficiency": {
                    "value": 0
                },
                "rules": [],
                "showSlotlessLevels": {
                    "value": true
                },
                "showUnpreparedSpells": {
                    "value": false
                },
                "signatureSpells": {
                    "value": []
                },
                "slots": {
                    "slot0": {
                        "max": 0,
                        "prepared": [],
                        "value": 0
                    },
                    "slot1": {
                        "max": 1,
                        "prepared": [],
                        "value": 1
                    },
                    "slot10": {
                        "max": 0,
                        "prepared": [],
                        "value": 0
                    },
                    "slot11": {
                        "max": 0,
                        "prepared": [],
                        "value": 0
                    },
                    "slot2": {
                        "max": 0,
                        "prepared": [],
                        "value": 0
                    },
                    "slot3": {
                        "max": 0,
                        "prepared": [],
                        "value": 0
                    },
                    "slot4": {
                        "max": 0,
                        "prepared": [],
                        "value": 0
                    },
                    "slot5": {
                        "max": 0,
                        "prepared": [],
                        "value": 0
                    },
                    "slot6": {
                        "max": 0,
                        "prepared": [],
                        "value": 0
                    },
                    "slot7": {
                        "max": 0,
                        "prepared": [],
                        "value": 0
                    },
                    "slot8": {
                        "max": 0,
                        "prepared": [],
                        "value": 0
                    },
                    "slot9": {
                        "max": 0,
                        "prepared": [],
                        "value": 0
                    }
                },
                "slug": null,
                "source": {
                    "value": ""
                },
                "spelldc": {
                    "dc": 18,
                    "mod": 0,
                    "value": 10
                },
                "tradition": {
                    "value": "divine"
                },
                "traits": {
                    "custom": "",
                    "rarity": {
                        "value": "common"
                    },
                    "value": []
                }
            },
            "effects": [],
            "flags": {},
            "img": "systems/pf2e/icons/default-icons/spellcastingEntry.svg",
            "name": "Cleric Domain Spells",
            "sort": 200000,
            "type": "spellcastingEntry"
        },
        {
            "_id": "ASu3qmJKE5NpxnUO",
            "data": {
                "ability": {
                    "value": ""
                },
                "area": {
                    "areaType": "",
                    "value": ""
                },
                "areasize": {
                    "value": ""
                },
                "autoHeightenLevel": {
                    "value": null
                },
                "category": {
                    "value": "spell"
                },
                "components": {
                    "focus": false,
                    "material": false,
                    "somatic": true,
                    "verbal": true
                },
                "cost": {
                    "value": ""
                },
                "damage": {
                    "value": {
                        "0": {
                            "applyMod": true,
                            "type": {
                                "categories": [],
                                "value": "negative"
                            },
                            "value": "1d4"
                        }
                    }
                },
                "description": {
                    "value": "<p>Siphoning negative energy into yourself, your hand radiates a pale darkness. Your touch weakens the living and disorients undead, possibly even causing them to flee. The effect depends on whether the target is living or undead.</p>\n<ul>\n<li><strong>Living Creature</strong> The spell deals negative damage equal to 1d4 plus your spellcasting modifier. The target attempts a basic Fortitude save, but is also @Compendium[pf2e.conditionitems.Enfeebled]{Enfeebled 1} for 1 round on a critical failure.</li>\n<li><strong>Undead Creature</strong> The target is @Compendium[pf2e.conditionitems.Flat-Footed]{Flat-Footed} for 1 round on a failed Fortitude save. On a critical failure, the target is also @Compendium[pf2e.conditionitems.Fleeing]{Fleeing} for 1 round unless it succeeds at a Will save.</li>\n</ul>\n<hr />\n<p><strong>Heightened (+1)</strong> The negative damage to living creatures increases by 1d4.</p>"
                },
                "duration": {
                    "value": ""
                },
                "hasCounteractCheck": {
                    "value": false
                },
                "level": {
                    "value": 1
                },
                "location": {
                    "value": "8sIvHO4KXSKpApOY"
                },
                "materials": {
                    "value": ""
                },
                "prepared": {
                    "value": ""
                },
                "primarycheck": {
                    "value": ""
                },
                "range": {
                    "value": "touch"
                },
                "rules": [],
                "save": {
                    "basic": "basic",
                    "value": "fortitude"
                },
                "scaling": {
                    "damage": {
                        "0": "1d4"
                    },
                    "interval": 1
                },
                "school": {
                    "value": "necromancy"
                },
                "secondarycasters": {
                    "value": ""
                },
                "secondarycheck": {
                    "value": ""
                },
                "slug": "chill-touch",
                "source": {
                    "value": ""
                },
                "spellType": {
                    "value": "save"
                },
                "sustained": {
                    "value": false
                },
                "target": {
                    "value": "1 living or undead creature"
                },
                "time": {
                    "value": "2"
                },
                "traditions": {
                    "value": [
                        "arcane",
                        "divine",
                        "occult"
                    ]
                },
                "traits": {
                    "custom": "",
                    "rarity": {
                        "value": "common"
                    },
                    "value": [
                        "cantrip",
                        "negative"
                    ]
                }
            },
            "effects": [],
            "flags": {
                "core": {
                    "sourceId": "Compendium.pf2e.spells-srd.mAMEt4FFbdqoRnkN"
                }
            },
            "img": "systems/pf2e/icons/spells/chill-touch.webp",
            "name": "Chill Touch",
            "sort": 300000,
            "type": "spell"
        },
        {
            "_id": "QIe6a9K01HggJnti",
            "data": {
                "ability": {
                    "value": ""
                },
                "area": {
                    "areaType": "",
                    "value": null
                },
                "areasize": {
                    "value": ""
                },
                "autoHeightenLevel": {
                    "value": null
                },
                "category": {
                    "value": "spell"
                },
                "components": {
                    "focus": false,
                    "material": false,
                    "somatic": true,
                    "verbal": true
                },
                "cost": {
                    "value": ""
                },
                "damage": {
                    "value": {}
                },
                "description": {
                    "value": "<p>You shout a command that's hard to ignore. You can command the target to approach you, run away (as if it had the @Compendium[pf2e.conditionitems.Fleeing]{Fleeing} condition), release what it's holding, drop @Compendium[pf2e.conditionitems.Prone]{Prone}, or stand in place. It can't Delay or take any reactions until it has obeyed your command. The effects depend on the target's Will save.</p>\n<hr /><strong>Success</strong> The creature is unaffected.\n<p><strong>Failure</strong> For the first action on its next turn, the creature must use a single action to do as you command.</p>\n<p><strong>Critical Failure</strong> The target must use all its actions on its next turn to obey your command.</p>\n<hr /><strong>Heightened (5th)</strong> You can target up to 10 creatures."
                },
                "duration": {
                    "value": "until the end of the target's next turn"
                },
                "hasCounteractCheck": {
                    "value": false
                },
                "level": {
                    "value": 1
                },
                "location": {
                    "value": "8sIvHO4KXSKpApOY"
                },
                "materials": {
                    "value": ""
                },
                "prepared": {
                    "value": ""
                },
                "primarycheck": {
                    "value": ""
                },
                "range": {
                    "value": "30 feet"
                },
                "rules": [],
                "save": {
                    "basic": "",
                    "value": "will"
                },
                "school": {
                    "value": "enchantment"
                },
                "secondarycasters": {
                    "value": ""
                },
                "secondarycheck": {
                    "value": ""
                },
                "slug": "command",
                "source": {
                    "value": ""
                },
                "spellType": {
                    "value": "save"
                },
                "sustained": {
                    "value": false
                },
                "target": {
                    "value": "1 creature"
                },
                "time": {
                    "value": "2"
                },
                "traditions": {
                    "value": [
                        "arcane",
                        "divine",
                        "occult"
                    ]
                },
                "traits": {
                    "custom": "",
                    "rarity": {
                        "value": "common"
                    },
                    "value": [
                        "auditory",
                        "linguistic",
                        "mental"
                    ]
                }
            },
            "effects": [],
            "flags": {
                "core": {
                    "sourceId": "Compendium.pf2e.spells-srd.aIHY2DArKFweIrpf"
                }
            },
            "img": "systems/pf2e/icons/spells/command.webp",
            "name": "Command",
            "sort": 400000,
            "type": "spell"
        },
        {
            "_id": "8KeQ5vAR6awbPvR9",
            "data": {
                "ability": {
                    "value": ""
                },
                "area": {
                    "areaType": "",
                    "value": null
                },
                "areasize": {
                    "value": ""
                },
                "autoHeightenLevel": {
                    "value": null
                },
                "category": {
                    "value": "spell"
                },
                "components": {
                    "focus": false,
                    "material": false,
                    "somatic": true,
                    "verbal": true
                },
                "cost": {
                    "value": ""
                },
                "damage": {
                    "value": {
                        "0": {
                            "applyMod": true,
                            "type": {
                                "categories": [],
                                "value": "mental"
                            },
                            "value": "0"
                        }
                    }
                },
                "description": {
                    "value": "<p>You cloud the target's mind and daze it with a mental jolt. The jolt deals mental damage equal to your spellcasting ability modifier; the target must attempt a basic Will save. If the target critically fails the save, it is also @Compendium[pf2e.conditionitems.Stunned]{Stunned 1}.</p>\n<hr />\n<p><strong>Heightened (+2)</strong> The damage increases by 1d6.</p>"
                },
                "duration": {
                    "value": "1 round"
                },
                "hasCounteractCheck": {
                    "value": false
                },
                "level": {
                    "value": 1
                },
                "location": {
                    "value": "8sIvHO4KXSKpApOY"
                },
                "materials": {
                    "value": ""
                },
                "prepared": {
                    "value": ""
                },
                "primarycheck": {
                    "value": ""
                },
                "range": {
                    "value": "60 feet"
                },
                "rules": [],
                "save": {
                    "basic": "basic",
                    "value": "will"
                },
                "scaling": {
                    "damage": {
                        "0": "1d6"
                    },
                    "interval": 2
                },
                "school": {
                    "value": "enchantment"
                },
                "secondarycasters": {
                    "value": ""
                },
                "secondarycheck": {
                    "value": ""
                },
                "slug": "daze",
                "source": {
                    "value": ""
                },
                "spellType": {
                    "value": "save"
                },
                "sustained": {
                    "value": false
                },
                "target": {
                    "value": "1 creature"
                },
                "time": {
                    "value": "2"
                },
                "traditions": {
                    "value": [
                        "arcane",
                        "divine",
                        "occult"
                    ]
                },
                "traits": {
                    "custom": "",
                    "rarity": {
                        "value": "common"
                    },
                    "value": [
                        "cantrip",
                        "mental",
                        "nonlethal"
                    ]
                }
            },
            "effects": [],
            "flags": {
                "core": {
                    "sourceId": "Compendium.pf2e.spells-srd.4gBIw4IDrSfFHik4"
                }
            },
            "img": "systems/pf2e/icons/spells/daze.webp",
            "name": "Daze",
            "sort": 500000,
            "type": "spell"
        },
        {
            "_id": "Kkv31g1pqr8zTqfB",
            "data": {
                "ability": {
                    "value": ""
                },
                "area": {
                    "areaType": "",
                    "value": null
                },
                "areasize": {
                    "value": ""
                },
                "autoHeightenLevel": {
                    "value": null
                },
                "category": {
                    "value": "spell"
                },
                "components": {
                    "focus": false,
                    "material": false,
                    "somatic": true,
                    "verbal": true
                },
                "cost": {
                    "value": ""
                },
                "damage": {
                    "value": {
                        "0": {
                            "applyMod": true,
                            "type": {
                                "categories": [],
                                "value": "untyped"
                            },
                            "value": "1d4"
                        }
                    }
                },
                "description": {
                    "value": "<p>You unleash a beam of divine energy. Choose an alignment your deity has (chaotic, evil, good, or lawful). You can't cast this spell if you don't have a deity or if your deity is true neutral. Make a ranged spell attack roll against the target's AC. On a hit, the target takes damage of the chosen alignment type equal to 1d4 + your spellcasting ability modifier (double damage on a critical hit). The spell gains the trait of the alignment you chose.</p>\n<hr />\n<p><strong>Heightened (+1)</strong> The damage increases by 1d4.</p>"
                },
                "duration": {
                    "value": ""
                },
                "hasCounteractCheck": {
                    "value": false
                },
                "level": {
                    "value": 1
                },
                "location": {
                    "value": "8sIvHO4KXSKpApOY"
                },
                "materials": {
                    "value": ""
                },
                "prepared": {
                    "value": ""
                },
                "primarycheck": {
                    "value": ""
                },
                "range": {
                    "value": "30 feet"
                },
                "rules": [],
                "save": {
                    "basic": "",
                    "value": ""
                },
                "scaling": {
                    "damage": {
                        "0": "1d4"
                    },
                    "interval": 1
                },
                "school": {
                    "value": "evocation"
                },
                "secondarycasters": {
                    "value": ""
                },
                "secondarycheck": {
                    "value": ""
                },
                "slug": "divine-lance",
                "source": {
                    "value": ""
                },
                "spellType": {
                    "value": "attack"
                },
                "sustained": {
                    "value": false
                },
                "target": {
                    "value": "1 creature"
                },
                "time": {
                    "value": "2"
                },
                "traditions": {
                    "value": [
                        "divine"
                    ]
                },
                "traits": {
                    "custom": "",
                    "rarity": {
                        "value": "common"
                    },
                    "value": [
                        "attack",
                        "cantrip"
                    ]
                }
            },
            "effects": [],
            "flags": {
                "core": {
                    "sourceId": "Compendium.pf2e.spells-srd.qwZBXN6zBoB9BHXE"
                }
            },
            "img": "systems/pf2e/icons/spells/divine-lance.webp",
            "name": "Divine Lance",
            "sort": 600000,
            "type": "spell"
        },
        {
            "_id": "71dIGYZunul6sXxT",
            "data": {
                "ability": {
                    "value": ""
                },
                "area": {
                    "areaType": "emanation",
                    "value": "30"
                },
                "areasize": {
                    "value": "varies"
                },
                "autoHeightenLevel": {
                    "value": null
                },
                "category": {
                    "value": "spell"
                },
                "components": {
                    "focus": false,
                    "material": false,
                    "somatic": false,
                    "verbal": false
                },
                "cost": {
                    "value": ""
                },
                "damage": {
                    "value": {
                        "0": {
                            "type": {
                                "categories": [],
                                "value": "negative"
                            },
                            "value": "1d8"
                        }
                    }
                },
                "description": {
                    "value": "<p>You channel negative energy to harm the living or heal the undead. If the target is a living creature, you deal 1d8 negative damage to it, and it gets a basic Fortitude save. If the target is a willing undead creature, you restore that amount of Hit Points. The number of actions you spend when Casting this Spell determines its targets, range, area, and other parameters.</p>\n<hr />\n<p><strong>1 Action</strong> (somatic) The spell has a range of touch.</p>\n<p><strong>2 Actions</strong> (somatic, verbal) The spell has a range of 30 feet. If you're healing an undead creature, increase the Hit Points restored by 8.</p>\n<p><strong>3 Actions</strong> (material, somatic, verbal) You disperse negative energy in a 30-foot emanation. This targets all living and undead creatures in the area.</p>\n<hr />\n<p><strong>Heightened (+1)</strong> The amount of healing or damage increases by 1d8, and the extra healing for the 2-action version increases by 8.</p>"
                },
                "duration": {
                    "value": ""
                },
                "hasCounteractCheck": {
                    "value": false
                },
                "level": {
                    "value": 1
                },
                "location": {
                    "value": "8sIvHO4KXSKpApOY"
                },
                "materials": {
                    "value": ""
                },
                "prepared": {
                    "value": ""
                },
                "primarycheck": {
                    "value": ""
                },
                "range": {
                    "value": "varies"
                },
                "rules": [],
                "save": {
                    "basic": "basic",
                    "value": "fortitude"
                },
                "scaling": {
                    "damage": {
                        "0": "1d8"
                    },
                    "interval": 1
                },
                "school": {
                    "value": "necromancy"
                },
                "secondarycasters": {
                    "value": ""
                },
                "secondarycheck": {
                    "value": ""
                },
                "slug": "harm",
                "source": {
                    "value": ""
                },
                "spellType": {
                    "value": "save"
                },
                "sustained": {
                    "value": false
                },
                "target": {
                    "value": "1 living creature or 1 willing undead creature"
                },
                "time": {
                    "value": "1 to 3"
                },
                "traditions": {
                    "value": [
                        "divine"
                    ]
                },
                "traits": {
                    "custom": "",
                    "rarity": {
                        "value": "common"
                    },
                    "value": [
                        "negative"
                    ]
                }
            },
            "effects": [],
            "flags": {
                "core": {
                    "sourceId": "Compendium.pf2e.spells-srd.wdA52JJnsuQWeyqz"
                }
            },
            "img": "systems/pf2e/icons/spells/harm.webp",
            "name": "Harm",
            "sort": 700000,
            "type": "spell"
        },
        {
            "_id": "cBTG37mFOpldni0d",
            "data": {
                "ability": {
                    "value": ""
                },
                "area": {
                    "areaType": "",
                    "value": null
                },
                "areasize": {
                    "value": ""
                },
                "autoHeightenLevel": {
                    "value": null
                },
                "category": {
                    "value": "spell"
                },
                "components": {
                    "focus": false,
                    "material": false,
                    "somatic": true,
                    "verbal": true
                },
                "cost": {
                    "value": ""
                },
                "damage": {
                    "value": {}
                },
                "description": {
                    "value": "<p>In your mind's eye, you see a path northward. You immediately know which direction is north (if it exists at your current location).</p>\n<hr />\n<p><strong>Heightened (7th)</strong> You can instead know the direction to a familiar location, such as a previous home or a favorite tavern.</p>"
                },
                "duration": {
                    "value": ""
                },
                "hasCounteractCheck": {
                    "value": false
                },
                "level": {
                    "value": 1
                },
                "location": {
                    "value": "8sIvHO4KXSKpApOY"
                },
                "materials": {
                    "value": ""
                },
                "prepared": {
                    "value": ""
                },
                "primarycheck": {
                    "value": ""
                },
                "range": {
                    "value": ""
                },
                "rules": [],
                "save": {
                    "basic": "",
                    "value": ""
                },
                "school": {
                    "value": "divination"
                },
                "secondarycasters": {
                    "value": ""
                },
                "secondarycheck": {
                    "value": ""
                },
                "slug": "know-direction",
                "source": {
                    "value": ""
                },
                "spellType": {
                    "value": "utility"
                },
                "sustained": {
                    "value": false
                },
                "target": {
                    "value": ""
                },
                "time": {
                    "value": "2"
                },
                "traditions": {
                    "custom": "",
                    "value": [
                        "divine",
                        "occult",
                        "primal"
                    ]
                },
                "traits": {
                    "custom": "",
                    "rarity": {
                        "value": "common"
                    },
                    "value": [
                        "detection",
                        "cantrip"
                    ]
                }
            },
            "effects": [],
            "flags": {
                "core": {
                    "sourceId": "Compendium.pf2e.spells-srd.tXa5vOu5giBNCjdR"
                }
            },
            "img": "systems/pf2e/icons/spells/know-direction.webp",
            "name": "Know Direction",
            "sort": 800000,
            "type": "spell"
        },
        {
            "_id": "LHJasYB4J1jhasfs",
            "data": {
                "ability": {
                    "value": ""
                },
                "area": {
                    "areaType": "",
                    "value": null
                },
                "areasize": {
                    "value": ""
                },
                "autoHeightenLevel": {
                    "value": null
                },
                "category": {
                    "value": "spell"
                },
                "components": {
                    "focus": false,
                    "material": false,
                    "somatic": true,
                    "verbal": true
                },
                "cost": {
                    "value": ""
                },
                "damage": {
                    "value": {
                        "0": {
                            "type": {
                                "categories": [],
                                "value": "mental"
                            },
                            "value": "2d4"
                        }
                    }
                },
                "description": {
                    "value": "<p>Illusory pain wracks the target, dealing 2d4 mental damage and [[/r {1d4}[persistent,mental]]] @Compendium[pf2e.conditionitems.Persistent Damage]{Persistent Mental Damage}. The target must attempt a Will save.</p>\n<hr />\n<p><strong>Critical Success</strong> The target is unaffected.</p>\n<p><strong>Success</strong> The target takes full initial damage but no @Compendium[pf2e.conditionitems.Persistent Damage]{Persistent Mental Damage}, and the spell ends immediately.</p>\n<p><strong>Failure</strong> The target takes full initial and Persistent Damage, and the target is @Compendium[pf2e.conditionitems.Sickened]{Sickened 1}. If the target recovers from being Sickened, the Persistent Damage ends and the spell ends.</p>\n<p><strong>Critical Failure</strong> As failure, but the target is @Compendium[pf2e.conditionitems.Sickened]{Sickened 2}.</p>\n<hr />\n<p><strong>Heightened (+1)</strong> The damage increases by 2d4 and the Persistent Damage by 1d4.</p>"
                },
                "duration": {
                    "value": "1 minute"
                },
                "hasCounteractCheck": {
                    "value": false
                },
                "level": {
                    "value": 1
                },
                "location": {
                    "value": "8sIvHO4KXSKpApOY"
                },
                "materials": {
                    "value": ""
                },
                "prepared": {
                    "value": ""
                },
                "primarycheck": {
                    "value": ""
                },
                "range": {
                    "value": "30 feet"
                },
                "rules": [],
                "save": {
                    "basic": "",
                    "value": "will"
                },
                "scaling": {
                    "damage": {
                        "0": "2d4"
                    },
                    "interval": 1
                },
                "school": {
                    "value": "illusion"
                },
                "secondarycasters": {
                    "value": ""
                },
                "secondarycheck": {
                    "value": ""
                },
                "slug": "phantom-pain",
                "source": {
                    "value": ""
                },
                "spellType": {
                    "value": "save"
                },
                "sustained": {
                    "value": false
                },
                "target": {
                    "value": "1 creature"
                },
                "time": {
                    "value": "2"
                },
                "traditions": {
                    "value": [
                        "occult"
                    ]
                },
                "traits": {
                    "custom": "",
                    "rarity": {
                        "value": "common"
                    },
                    "value": [
                        "mental",
                        "nonlethal"
                    ]
                }
            },
            "effects": [],
            "flags": {
                "core": {
                    "sourceId": "Compendium.pf2e.spells-srd.R8bqnYiThB6MYTxD"
                }
            },
            "img": "systems/pf2e/icons/spells/phantom-pain.webp",
            "name": "Phantom Pain",
            "sort": 900000,
            "type": "spell"
        },
        {
            "_id": "N5GFsVk17rh8tJ0V",
            "data": {
                "ability": {
                    "value": ""
                },
                "area": {
                    "areaType": "",
                    "value": null
                },
                "areasize": {
                    "value": ""
                },
                "autoHeightenLevel": {
                    "value": null
                },
                "category": {
                    "value": "spell"
                },
                "components": {
                    "focus": false,
                    "material": false,
                    "somatic": true,
                    "verbal": true
                },
                "cost": {
                    "value": ""
                },
                "damage": {
                    "value": {}
                },
                "description": {
                    "value": "<p>A ray that saps a foe's strength flashes from your hand. Attempt a ranged spell attack against the target. If you succeed, that creature attempts a Fortitude save to determine the spell's effect. If your attack roll is a critical success, use the outcome for one degree of success worse than the result of its save.</p>\n<hr />\n<p><strong>Critical Success</strong> The target is unaffected.</p>\n<p><strong>Success</strong> The target becomes @Compendium[pf2e.conditionitems.Enfeebled]{Enfeebled 1}.</p>\n<p><strong>Failure</strong> The target becomes @Compendium[pf2e.conditionitems.Enfeebled]{Enfeebled 2}.</p>\n<p><strong>Critical Failure</strong> The target becomes @Compendium[pf2e.conditionitems.Enfeebled]{Enfeebled 3}.</p>"
                },
                "duration": {
                    "value": "1 minute"
                },
                "hasCounteractCheck": {
                    "value": false
                },
                "level": {
                    "value": 1
                },
                "location": {
                    "value": "8sIvHO4KXSKpApOY"
                },
                "materials": {
                    "value": ""
                },
                "prepared": {
                    "value": ""
                },
                "primarycheck": {
                    "value": ""
                },
                "range": {
                    "value": "30 feet"
                },
                "rules": [],
                "save": {
                    "basic": "",
                    "value": "fortitude"
                },
                "school": {
                    "value": "necromancy"
                },
                "secondarycasters": {
                    "value": ""
                },
                "secondarycheck": {
                    "value": ""
                },
                "slug": "ray-of-enfeeblement",
                "source": {
                    "value": ""
                },
                "spellType": {
                    "value": "attack"
                },
                "sustained": {
                    "value": false
                },
                "target": {
                    "value": "1 creature"
                },
                "time": {
                    "value": "2"
                },
                "traditions": {
                    "value": [
                        "arcane",
                        "divine",
                        "occult"
                    ]
                },
                "traits": {
                    "custom": "",
                    "rarity": {
                        "value": "common"
                    },
                    "value": [
                        "attack"
                    ]
                }
            },
            "effects": [],
            "flags": {
                "core": {
                    "sourceId": "Compendium.pf2e.spells-srd.J7Y7tl0bbdz7TcCc"
                }
            },
            "img": "systems/pf2e/icons/spells/ray-of-enfeeblement.webp",
            "name": "Ray of Enfeeblement",
            "sort": 1000000,
            "type": "spell"
        },
        {
            "_id": "gn7y1zWFjaK7NGgE",
            "data": {
                "ability": {
                    "value": ""
                },
                "area": {
                    "areaType": "",
                    "value": ""
                },
                "areasize": {
                    "value": ""
                },
                "autoHeightenLevel": {
                    "value": null
                },
                "category": {
                    "value": "focus"
                },
                "components": {
                    "focus": false,
                    "material": false,
                    "somatic": true,
                    "verbal": false
                },
                "cost": {
                    "value": ""
                },
                "damage": {
                    "value": {
                        "0": {
                            "type": {
                                "categories": [],
                                "value": "mental"
                            },
                            "value": "1d4"
                        }
                    }
                },
                "description": {
                    "value": "<p>You inflict pain upon the target and revel in their anguish. This deals 1d4 mental damage and [[/r {1d4}[persistent,mental]]] @Compendium[pf2e.conditionitems.Persistent Damage]{Persistent Mental Damage}; the target must attempt a Will save. As long as the target is taking @Compendium[pf2e.conditionitems.Persistent Damage]{Persistent Damage} from this spell, you gain a +1 status bonus to attack rolls and skill checks against the target.</p>\n<hr />\n<p><strong>Critical Success</strong> The target is unaffected.</p>\n<p><strong>Success</strong> The target takes half damage and no Persistent Damage.</p>\n<p><strong>Failure</strong> The target takes full initial and Persistent Damage.</p>\n<p><strong>Critical Failure</strong> The target takes double initial and Persistent Damage.</p>\n<hr />\n<p><strong>Heightened (+1)</strong> The initial damage increases by 1d4 and the Persistent Damage increases by 1d4.</p>"
                },
                "duration": {
                    "value": ""
                },
                "hasCounteractCheck": {
                    "value": false
                },
                "level": {
                    "value": 1
                },
                "location": {
                    "value": "GI2I0P5iImIdFe18"
                },
                "materials": {
                    "value": ""
                },
                "prepared": {
                    "value": ""
                },
                "primarycheck": {
                    "value": ""
                },
                "range": {
                    "value": "touch"
                },
                "rules": [],
                "save": {
                    "basic": "",
                    "value": "will"
                },
                "scaling": {
                    "damage": {
                        "0": "1d4"
                    },
                    "interval": 1
                },
                "school": {
                    "value": "enchantment"
                },
                "secondarycasters": {
                    "value": ""
                },
                "secondarycheck": {
                    "value": ""
                },
                "slug": "savor-the-sting",
                "source": {
                    "value": ""
                },
                "spellType": {
                    "value": "save"
                },
                "sustained": {
                    "value": false
                },
                "target": {
                    "value": "1 creature"
                },
                "time": {
                    "value": "1"
                },
                "traditions": {
                    "value": []
                },
                "traits": {
                    "custom": "",
                    "rarity": {
                        "value": "uncommon"
                    },
                    "value": [
                        "cleric",
                        "mental",
                        "nonlethal"
                    ]
                }
            },
            "effects": [],
            "flags": {
                "core": {
                    "sourceId": "Compendium.pf2e.spells-srd.xn0V2HDrmDWNzPEt"
                }
            },
            "img": "systems/pf2e/icons/spells/savor-the-sting.webp",
            "name": "Savor the Sting",
            "sort": 1100000,
            "type": "spell"
        },
        {
            "_id": "yF3ufM63gGXkHK5x",
            "data": {
                "ability": {
                    "value": ""
                },
                "area": {
                    "areaType": "",
                    "value": null
                },
                "areasize": {
                    "value": ""
                },
                "autoHeightenLevel": {
                    "value": null
                },
                "category": {
                    "value": "spell"
                },
                "components": {
                    "focus": false,
                    "material": false,
                    "somatic": false,
                    "verbal": true
                },
                "cost": {
                    "value": ""
                },
                "damage": {
                    "value": {}
                },
                "description": {
                    "value": "<p>You raise a magical shield of force. This counts as using the Raise a Shield action, giving you a +1 circumstance bonus to AC until the start of your next turn, but it doesn't require a hand to use.</p>\n<p>While the spell is in effect, you can use the Shield Block reaction with your magic shield. The shield has Hardness 5. After you use Shield Block, the spell ends and you can't cast it again for 10 minutes. Unlike a normal Shield Block, you can use the spell's reaction against the magic missile spell.</p>\n<p>Heightening the spell increases the shield's Hardness.</p>\n<p>@Compendium[pf2e.spell-effects.Spell Effect: Shield]{Spell Effect: Shield}</p>\n<hr />\n<p><strong>Heightened (3rd)</strong> The shield has Hardness 10.</p>\n<p><strong>Heightened (5th)</strong> The shield has Hardness 15.</p>\n<p><strong>Heightened (7th)</strong> The shield has Hardness 20.</p>\n<p><strong>Heightened (9th)</strong> The shield has Hardness 25.</p>"
                },
                "duration": {
                    "value": "until the start of your next turn"
                },
                "hasCounteractCheck": {
                    "value": false
                },
                "level": {
                    "value": 1
                },
                "location": {
                    "value": "8sIvHO4KXSKpApOY"
                },
                "materials": {
                    "value": ""
                },
                "prepared": {
                    "value": ""
                },
                "primarycheck": {
                    "value": ""
                },
                "range": {
                    "value": ""
                },
                "rules": [],
                "save": {
                    "basic": "",
                    "value": ""
                },
                "school": {
                    "value": "abjuration"
                },
                "secondarycasters": {
                    "value": ""
                },
                "secondarycheck": {
                    "value": ""
                },
                "slug": "shield",
                "source": {
                    "value": ""
                },
                "spellType": {
                    "value": "utility"
                },
                "sustained": {
                    "value": false
                },
                "target": {
                    "value": ""
                },
                "time": {
                    "value": "1"
                },
                "traditions": {
                    "value": [
                        "arcane",
                        "divine",
                        "occult"
                    ]
                },
                "traits": {
                    "custom": "",
                    "rarity": {
                        "value": "common"
                    },
                    "value": [
                        "cantrip",
                        "force"
                    ]
                }
            },
            "effects": [],
            "flags": {
                "core": {
                    "sourceId": "Compendium.pf2e.spells-srd.TVKNbcgTee19PXZR"
                }
            },
            "img": "systems/pf2e/icons/spells/shield.webp",
            "name": "Shield",
            "sort": 1200000,
            "type": "spell"
        },
        {
            "_id": "AfEFDaf9A7uSHKS6",
            "data": {
                "MAP": {
                    "value": ""
                },
                "baseItem": "spiked-gauntlet",
                "bonus": {
                    "value": 0
                },
                "bonusDamage": {
                    "value": 0
                },
                "brokenThreshold": {
                    "value": 0
                },
                "bulkCapacity": {
                    "value": ""
                },
                "category": "simple",
                "collapsed": {
                    "value": false
                },
                "containerId": {
                    "value": ""
                },
                "damage": {
                    "damageType": "piercing",
                    "dice": 1,
                    "die": "d4",
                    "value": ""
                },
                "description": {
                    "value": "<p>Providing the same defensive function as a standard gauntlet, this version has a group of spikes protruding from the knuckles to deliver piercing damage with a punch.</p>"
                },
                "equipped": {
                    "value": true
                },
                "equippedBulk": {
                    "value": ""
                },
                "group": "brawling",
                "hands": {
                    "value": ""
                },
                "hardness": {
                    "value": 0
                },
                "hp": {
                    "value": 0
                },
                "identification": {
                    "misidentified": {},
                    "status": "identified",
                    "unidentified": {
                        "data": {
                            "description": {
                                "value": ""
                            }
                        },
                        "img": "",
                        "name": ""
                    }
                },
                "invested": {
                    "value": false
                },
                "level": {
                    "value": 0
                },
                "maxHp": {
                    "value": 0
                },
                "negateBulk": {
                    "value": "0"
                },
                "potencyRune": {
                    "value": null
                },
                "preciousMaterial": {
                    "value": ""
                },
                "preciousMaterialGrade": {
                    "value": ""
                },
                "price": {
                    "value": "3 sp"
                },
                "property1": {
                    "critDamage": "",
                    "critDamageType": "",
                    "critDice": null,
                    "critDie": "",
                    "criticalConditionType": "",
                    "criticalConditionValue": null,
                    "damageType": "",
                    "dice": null,
                    "die": "",
                    "strikeConditionType": "",
                    "strikeConditionValue": null,
                    "value": ""
                },
                "propertyRune1": {
                    "value": ""
                },
                "propertyRune2": {
                    "value": ""
                },
                "propertyRune3": {
                    "value": ""
                },
                "propertyRune4": {
                    "value": ""
                },
                "quantity": {
                    "value": 1
                },
                "range": null,
                "reload": {
                    "value": ""
                },
                "rules": [],
                "size": {
                    "value": "med"
                },
                "slug": "spiked-gauntlet",
                "source": {
                    "value": ""
                },
                "specific": {
                    "value": false
                },
                "splashDamage": {
                    "value": 0
                },
                "stackGroup": {
                    "value": ""
                },
                "strikingRune": {
                    "value": ""
                },
                "traits": {
                    "custom": "",
                    "rarity": {
                        "value": "common"
                    },
                    "value": [
                        "agile",
                        "free-hand"
                    ]
                },
                "usage": {
                    "value": "held-in-one-hand"
                },
                "weight": {
                    "value": "L"
                }
            },
            "effects": [],
            "flags": {
                "core": {
                    "sourceId": "Compendium.pf2e.equipment-srd.YFfG2fMyaIAXkmtr"
                }
            },
            "img": "systems/pf2e/icons/equipment/weapons/spiked-gauntlet.webp",
            "name": "Spiked Gauntlet",
            "sort": 1300000,
            "type": "weapon"
        },
        {
            "_id": "ZE321cvJxD3l43dU",
            "data": {
                "armor": {
                    "value": 1
                },
                "baseItem": "leather-armor",
                "brokenThreshold": {
                    "value": null
                },
                "bulkCapacity": {
                    "value": ""
                },
                "category": "light",
                "check": {
                    "value": -1
                },
                "collapsed": {
                    "value": false
                },
                "containerId": {
                    "value": ""
                },
                "description": {
                    "value": "<p>A mix of flexible and molded boiled leather, a suit of this type of armor provides some protection with maximum flexibility.</p>"
                },
                "dex": {
                    "value": 4
                },
                "equipped": {
                    "value": true
                },
                "equippedBulk": {
                    "value": "1"
                },
                "group": "leather",
                "hardness": {
                    "value": null
                },
                "hp": {
                    "value": null
                },
                "identification": {
                    "misidentified": {},
                    "status": "identified",
                    "unidentified": {
                        "data": {
                            "description": {
                                "value": ""
                            }
                        },
                        "img": "",
                        "name": ""
                    }
                },
                "invested": {
                    "value": false
                },
                "level": {
                    "value": 0
                },
                "maxHp": {
                    "value": null
                },
                "negateBulk": {
                    "value": "0"
                },
                "potency": {},
                "potencyRune": {
                    "value": 0
                },
                "preciousMaterial": {
                    "value": ""
                },
                "preciousMaterialGrade": {
                    "value": ""
                },
                "price": {
                    "value": "2 gp"
                },
                "propertyRune1": {
                    "value": ""
                },
                "propertyRune2": {
                    "value": ""
                },
                "propertyRune3": {
                    "value": ""
                },
                "propertyRune4": {
                    "value": ""
                },
                "quantity": {
                    "value": 1
                },
                "resiliencyRune": {
                    "value": ""
                },
                "rules": [],
                "size": {
                    "value": "med"
                },
                "slug": "leather-armor",
                "source": {
                    "value": ""
                },
                "speed": {
                    "value": 0
                },
                "stackGroup": {
                    "value": ""
                },
                "strength": {
                    "value": 10
                },
                "traits": {
                    "custom": "",
                    "rarity": {
                        "value": "common"
                    },
                    "value": []
                },
                "usage": {
                    "value": "wornarmor"
                },
                "weight": {
                    "value": "2"
                }
            },
            "effects": [],
            "flags": {
                "core": {
                    "sourceId": "Compendium.pf2e.equipment-srd.4tIVTg9wj56RrveA"
                }
            },
            "img": "systems/pf2e/icons/equipment/armor/leather-armor.webp",
            "name": "Leather Armor",
            "sort": 1400000,
            "type": "armor"
        },
        {
            "_id": "oAqUayimlzZFsEF0",
            "data": {
                "baseItem": null,
                "brokenThreshold": {
                    "value": 0
                },
                "bulkCapacity": {
                    "value": ""
                },
                "collapsed": {
                    "value": false
                },
                "containerId": {
                    "value": ""
                },
                "description": {
                    "value": "<p>This piece of wood or silver is emblazoned with an image representing a deity. Some divine spellcasters, such as clerics, can use a religious symbol of their deity as a divine focus to use certain abilities and cast some spells. A religious symbol must be held in one hand to use it.</p>"
                },
                "equipped": {
                    "value": true
                },
                "equippedBulk": {
                    "value": ""
                },
                "hardness": {
                    "value": 0
                },
                "hp": {
                    "value": 0
                },
                "identification": {
                    "misidentified": {},
                    "status": "identified",
                    "unidentified": {
                        "data": {
                            "description": {
                                "value": ""
                            }
                        },
                        "img": "",
                        "name": ""
                    }
                },
                "invested": {
                    "value": false
                },
                "level": {
                    "value": 0
                },
                "maxHp": {
                    "value": 0
                },
                "negateBulk": {
                    "value": "0"
                },
                "preciousMaterial": {
                    "value": ""
                },
                "preciousMaterialGrade": {
                    "value": ""
                },
                "price": {
                    "value": "1 sp"
                },
                "quantity": {
                    "value": 1
                },
                "rules": [],
                "size": {
                    "value": "med"
                },
                "slug": "religious-symbol-wooden",
                "source": {
                    "value": ""
                },
                "stackGroup": {
                    "value": ""
                },
                "traits": {
                    "custom": "",
                    "rarity": {
                        "value": "common"
                    },
                    "value": []
                },
                "usage": {
                    "value": "wornnecklace"
                },
                "weight": {
                    "value": "L"
                }
            },
            "effects": [],
            "flags": {
                "core": {
                    "sourceId": "Compendium.pf2e.equipment-srd.plplsXJsqrdqNQVI"
                }
            },
            "img": "systems/pf2e/icons/equipment/adventuring-gear/religious-symbol-wooden.webp",
            "name": "Religious Symbol of Zon-Kuthon (Wooden)",
            "sort": 1500000,
            "type": "equipment"
        },
        {
            "_id": "nvHMNNPzATn5jOLK",
            "data": {
                "attack": {
                    "value": ""
                },
                "attackEffects": {
                    "value": []
                },
                "bonus": {
                    "value": 7
                },
                "damageRolls": {
                    "85wkt6rlwc5qqobfsvl3": {
                        "damage": "1d4",
                        "damageType": "piercing"
                    }
                },
                "description": {
                    "value": ""
                },
                "rules": [],
                "slug": null,
                "source": {
                    "value": ""
                },
                "traits": {
                    "custom": "",
                    "rarity": {
                        "value": "common"
                    },
                    "value": [
                        "agile",
                        "free-hand"
                    ]
                },
                "weaponType": {
                    "value": "melee"
                }
            },
            "effects": [],
            "flags": {},
            "img": "systems/pf2e/icons/default-icons/melee.svg",
            "name": "Spiked Gauntlet",
            "sort": 1600000,
            "type": "melee"
        },
        {
            "_id": "gYhthOM1LV4mBCqF",
            "data": {
                "actionCategory": {
                    "value": "interaction"
                },
                "actionType": {
                    "value": "passive"
                },
                "actions": {
                    "value": null
                },
                "description": {
                    "value": "<p>@Localize[PF2E.NPC.Abilities.Glossary.LowLightVision]</p>"
                },
                "requirements": {
                    "value": ""
                },
                "rules": [],
                "slug": "low-light-vision",
                "source": {
                    "value": ""
                },
                "traits": {
                    "custom": "",
                    "rarity": {
                        "value": "common"
                    },
                    "value": []
                },
                "trigger": {
                    "value": ""
                },
                "weapon": {
                    "value": ""
                }
            },
            "effects": [],
            "flags": {
                "core": {
                    "sourceId": "Compendium.pf2e.bestiary-ability-glossary-srd.fFu2sZz4KB01fVRc"
                }
            },
            "img": "systems/pf2e/icons/actions/Passive.webp",
            "name": "Low-Light Vision",
            "sort": 1700000,
            "type": "action"
        },
        {
            "_id": "vPqK0Xzj05Is8zqq",
            "data": {
                "actionCategory": {
                    "value": "defensive"
                },
                "actionType": {
                    "value": "reaction"
                },
                "actions": {
                    "value": null
                },
                "description": {
                    "value": "<p><strong>Requirement</strong> Teflar has spent at least 1 Focus Point;</p>\n<p data-visibility=\"gm\"><strong>Trigger</strong> Teflar takes bleed, piercing, or slashing damage;</p>\n<p><strong>Effect</strong> Teflar regains 1 Focus Point</p>"
                },
                "requirements": {
                    "value": ""
                },
                "rules": [],
                "slug": null,
                "source": {
                    "value": ""
                },
                "traits": {
                    "custom": "",
                    "rarity": {
                        "value": "common"
                    },
                    "value": []
                },
                "trigger": {
                    "value": ""
                },
                "weapon": {
                    "value": ""
                }
            },
            "effects": [],
            "flags": {},
            "img": "systems/pf2e/icons/actions/Reaction.webp",
            "name": "Invigorating Agony",
            "sort": 1800000,
            "type": "action"
        },
        {
            "_id": "1LLK1xdmgE3sN7Qd",
            "data": {
                "description": {
                    "value": ""
                },
                "item": {
                    "value": 0
                },
                "mod": {
                    "value": 8
                },
                "proficient": {
                    "value": 0
                },
                "rules": [],
                "slug": null,
                "source": {
                    "value": ""
                },
                "traits": {
                    "custom": "",
                    "rarity": {
                        "value": "common"
                    },
                    "value": []
                }
            },
            "effects": [],
            "flags": {},
            "img": "systems/pf2e/icons/default-icons/lore.svg",
            "name": "Deception",
            "sort": 1900000,
            "type": "lore"
        },
        {
            "_id": "ujEjQYkOytFl7IKM",
            "data": {
                "description": {
                    "value": ""
                },
                "item": {
                    "value": 0
                },
                "mod": {
                    "value": 8
                },
                "proficient": {
                    "value": 0
                },
                "rules": [],
                "slug": null,
                "source": {
                    "value": ""
                },
                "traits": {
                    "custom": "",
                    "rarity": {
                        "value": "common"
                    },
                    "value": []
                }
            },
            "effects": [],
            "flags": {},
            "img": "systems/pf2e/icons/default-icons/lore.svg",
            "name": "Intimidation",
            "sort": 2000000,
            "type": "lore"
        },
        {
            "_id": "U22N71qC7J4anOIk",
            "data": {
                "description": {
                    "value": ""
                },
                "item": {
                    "value": 0
                },
                "mod": {
                    "value": 7
                },
                "proficient": {
                    "value": 0
                },
                "rules": [],
                "slug": null,
                "source": {
                    "value": ""
                },
                "traits": {
                    "custom": "",
                    "rarity": {
                        "value": "common"
                    },
                    "value": []
                }
            },
            "effects": [],
            "flags": {},
            "img": "systems/pf2e/icons/default-icons/lore.svg",
            "name": "Religion",
            "sort": 2100000,
            "type": "lore"
        },
        {
            "_id": "4D1uDfKiXAxw2rQC",
            "data": {
                "description": {
                    "value": ""
                },
                "item": {
                    "value": 0
                },
                "mod": {
                    "value": 5
                },
                "proficient": {
                    "value": 0
                },
                "rules": [],
                "slug": null,
                "source": {
                    "value": ""
                },
                "traits": {
                    "custom": "",
                    "rarity": {
                        "value": "common"
                    },
                    "value": []
                }
            },
            "effects": [],
            "flags": {},
            "img": "systems/pf2e/icons/default-icons/lore.svg",
            "name": "Stealth",
            "sort": 2200000,
            "type": "lore"
        }
    ],
    "name": "Teflar",
    "token": {
        "disposition": -1,
        "height": 1,
        "img": "systems/pf2e/icons/default-icons/npc.svg",
        "name": "Teflar",
        "width": 1
    },
    "type": "npc"
}
