{
    "_id": "wnrgiB2PkaBC5gOQ",
    "data": {
        "abilities": {
            "cha": {
                "mod": -5
            },
            "con": {
                "mod": 4
            },
            "dex": {
                "mod": 3
            },
            "int": {
                "mod": -5
            },
            "str": {
                "mod": 1
            },
            "wis": {
                "mod": 0
            }
        },
        "attributes": {
            "ac": {
                "details": "(12 when broken); construct armor",
                "value": 16
            },
            "allSaves": {
                "value": ""
            },
            "hp": {
                "details": "Hardness 3",
                "max": 14,
                "temp": 0,
                "value": 14
            },
            "initiative": {
                "ability": "perception"
            },
            "perception": {
                "value": 5
            },
            "shield": {
                "ac": 2,
                "brokenThreshold": 0,
                "hardness": 0,
                "max": 0,
                "value": 0
            },
            "speed": {
                "otherSpeeds": [],
                "value": "20"
            }
        },
        "details": {
            "alignment": {
                "value": "N"
            },
            "blurb": "",
            "creatureType": "",
            "level": {
                "value": 1
            },
            "privateNotes": "",
            "publicNotes": "<p>Nobles are known to pay great amounts to animate their silverware, both for ease in cleaning and to serve as novelties during dinner parties.</p>\n<hr />\n<p>Many animated objects have useful functions but become dangers when uncontrolled.</p>",
            "source": {
                "value": "Pathfinder Bestiary 3"
            }
        },
        "resources": {},
        "saves": {
            "fortitude": {
                "saveDetail": "",
                "value": 9
            },
            "reflex": {
                "saveDetail": "",
                "value": 8
            },
            "will": {
                "saveDetail": "",
                "value": 3
            }
        },
        "traits": {
            "attitude": {
                "value": "hostile"
            },
            "ci": [],
            "di": {
                "custom": "",
                "value": [
                    "death-effects",
                    "disease",
                    "doomed",
                    "drained",
                    "fatigued",
                    "healing",
                    "mental",
                    "necromancy",
                    "nonlethal-attacks",
                    "paralyzed",
                    "poison",
                    "precision",
                    "sickened",
                    "unconscious"
                ]
            },
            "dr": [],
            "dv": [
                {
                    "label": "Area Damage",
                    "type": "area-damage",
                    "value": "3"
                },
                {
                    "label": "Splash Damage",
                    "type": "splash-damage",
                    "value": "3"
                }
            ],
            "languages": {
                "custom": "",
                "selected": [],
                "value": []
            },
            "rarity": {
                "value": "common"
            },
            "senses": {
                "value": "darkvision"
            },
            "size": {
                "value": "lg"
            },
            "traits": {
                "custom": "",
                "value": [
                    "construct",
                    "mindless",
                    "swarm"
                ]
            }
        }
    },
    "effects": [],
    "flags": {},
    "img": "systems/pf2e/icons/default-icons/npc.svg",
    "items": [
        {
            "_id": "Y1NA8w2GEqKfmqbJ",
            "data": {
                "actionCategory": {
                    "value": "interaction"
                },
                "actionType": {
                    "value": "passive"
                },
                "actions": {
                    "value": null
                },
                "description": {
                    "value": "<p>@Localize[PF2E.NPC.Abilities.Glossary.Darkvision]</p>"
                },
                "requirements": {
                    "value": ""
                },
                "rules": [],
                "slug": "darkvision",
                "source": {
                    "value": ""
                },
                "traits": {
                    "custom": "",
                    "rarity": {
                        "value": "common"
                    },
                    "value": []
                },
                "trigger": {
                    "value": ""
                },
                "weapon": {
                    "value": ""
                }
            },
            "effects": [],
            "flags": {
                "core": {
                    "sourceId": "Compendium.pf2e.bestiary-ability-glossary-srd.qCCLZhnp2HhP3Ex6"
                }
            },
            "img": "systems/pf2e/icons/actions/Passive.webp",
            "name": "Darkvision",
            "sort": 100000,
            "type": "action"
        },
        {
            "_id": "VB7Ak1txQ1RPwHwJ",
            "data": {
                "actionCategory": {
                    "value": "defensive"
                },
                "actionType": {
                    "value": "passive"
                },
                "actions": {
                    "value": null
                },
                "description": {
                    "value": "<p>Like normal objects, an animated silverware swarm has Hardness. This Hardness reduces any damage the swarm takes by an amount equal to the Hardness. Once an animated silverware swarm is reduced to fewer than half its Hit Points, or immediately upon being damaged by a critical hit, its construct armor breaks, removing the Hardness and reducing its Armor Class to 12.</p>"
                },
                "requirements": {
                    "value": ""
                },
                "rules": [
                    {
                        "key": "ToggleProperty",
                        "label": "Construct Armor is Broken",
                        "property": "flags.pf2e.rollOptions.all.construct-armor"
                    },
                    {
                        "key": "FlatModifier",
                        "predicate": {
                            "all": [
                                "construct-armor"
                            ]
                        },
                        "selector": "ac",
                        "value": -4
                    }
                ],
                "slug": null,
                "source": {
                    "value": ""
                },
                "traits": {
                    "custom": "",
                    "rarity": {
                        "value": "common"
                    },
                    "value": []
                },
                "trigger": {
                    "value": ""
                },
                "weapon": {
                    "value": ""
                }
            },
            "effects": [],
            "flags": {},
            "img": "systems/pf2e/icons/actions/Passive.webp",
            "name": "Construct Armor (Hardness 3)",
            "sort": 200000,
            "type": "action"
        },
        {
            "_id": "GpYSF4Qy9tOtd9Z4",
            "data": {
                "actionCategory": {
                    "value": "offensive"
                },
                "actionType": {
                    "value": "action"
                },
                "actions": {
                    "value": 1
                },
                "description": {
                    "value": "<p>Each enemy in the animated silverware swarm's space takes [[/r {1d6}[piercing]]]{1d6 piercing damage} or [[/r {1d6}[slashing]]]{1d6 slashing damage} (<span data-pf2-check=\"reflex\" data-pf2-dc=\"17\" data-pf2-traits=\"magical\" data-pf2-label=\"Slice and Dice DC\" data-pf2-show-dc=\"gm\">basic Reflex</span> save)</p>"
                },
                "requirements": {
                    "value": ""
                },
                "rules": [],
                "slug": null,
                "source": {
                    "value": ""
                },
                "traits": {
                    "custom": "",
                    "rarity": {
                        "value": "common"
                    },
                    "value": [
                        "magical"
                    ]
                },
                "trigger": {
                    "value": ""
                },
                "weapon": {
                    "value": ""
                }
            },
            "effects": [],
            "flags": {},
            "img": "systems/pf2e/icons/actions/OneAction.webp",
            "name": "Slice and Dice",
            "sort": 300000,
            "type": "action"
        },
        {
            "_id": "3BpK7a2mX5UCDLmB",
            "data": {
                "actionCategory": {
                    "value": "offensive"
                },
                "actionType": {
                    "value": "action"
                },
                "actions": {
                    "value": 1
                },
                "description": {
                    "value": "<p>The animated silverware swarm attempts to pin a single creature.</p>\n<p>The target must attempt a <span data-pf2-check=\"reflex\" data-pf2-dc=\"17\" data-pf2-label=\"Stick a Fork in It DC\" data-pf2-show-dc=\"gm\">Reflex</span> save.</p>\n<div data-visibility=\"gm\"><hr />\n<p><strong>Critical Success</strong> The target is unaffected.</p>\n<p><strong>Success</strong> Silverware pins portions of the target's clothing and gear. The target takes a -10-foot circumstance penalty to its Speeds as long as it remains in the swarm's space.</p>\n<p><strong>Failure</strong> As success, and the target also can't Step until it leaves the swarm's space.</p>\n<p><strong>Critical Failure</strong> The target is thoroughly pinned by the silverware, becoming @Compendium[pf2e.conditionitems.Immobilized]{Immobilized} until it @Compendium[pf2e.actionspf2e.Escape]{Escapes} (DC 17) or uses 2 Interact actions to remove all of the silverware pinning them down.</p>\n<hr />\n<p>@Compendium[pf2e.bestiary-effects.Effect: Stick a Fork in It]{Effect: Stick a Fork in It}</p>\n</div>"
                },
                "requirements": {
                    "value": ""
                },
                "rules": [],
                "slug": null,
                "source": {
                    "value": ""
                },
                "traits": {
                    "custom": "",
                    "rarity": {
                        "value": "common"
                    },
                    "value": []
                },
                "trigger": {
                    "value": ""
                },
                "weapon": {
                    "value": ""
                }
            },
            "effects": [],
            "flags": {},
            "img": "systems/pf2e/icons/actions/OneAction.webp",
            "name": "Stick a Fork in It",
            "sort": 400000,
            "type": "action"
        },
        {
            "_id": "VvtBsmeYmhmC0ClY",
            "data": {
                "description": {
                    "value": ""
                },
                "item": {
                    "value": 0
                },
                "mod": {
                    "value": 8
                },
                "proficient": {
                    "value": 0
                },
                "rules": [],
                "slug": null,
                "source": {
                    "value": ""
                },
                "traits": {
                    "custom": "",
                    "rarity": {
                        "value": "common"
                    },
                    "value": []
                }
            },
            "effects": [],
            "flags": {},
            "img": "systems/pf2e/icons/default-icons/lore.svg",
            "name": "Acrobatics",
            "sort": 500000,
            "type": "lore"
        }
    ],
    "name": "Animated Silverware Swarm",
    "token": {
        "disposition": -1,
        "height": 2,
        "img": "systems/pf2e/icons/default-icons/npc.svg",
        "name": "Animated Silverware Swarm",
        "width": 2
    },
    "type": "npc"
}
