{
    "_id": "mwEig0MYM7EIibSU",
    "data": {
        "actionCategory": {
            "value": "offensive"
        },
        "actionType": {
            "value": "free"
        },
        "actions": {
            "value": null
        },
        "description": {
            "value": "<div data-visibility=\"gm\">\n<p><strong>Frequency</strong> once per round;</p>\n<p><strong>Trigger</strong> The barghest completes a Strike.</p>\n</div>\n<p><strong>Effect</strong> The barghest makes a claw Strike with a shriveled third arm hanging from its torso. This attack doesn't count for the barghest's multiple attack penalty, nor does that penalty apply on the attack.</p>"
        },
        "requirements": {
            "value": ""
        },
        "rules": [],
        "source": {
            "value": "Pathfinder Bestiary"
        },
        "traits": {
            "custom": "",
            "rarity": {
                "value": "common"
            },
            "value": []
        },
        "trigger": {
            "value": ""
        }
    },
    "effects": [],
    "flags": {},
    "img": "systems/pf2e/icons/actions/FreeAction.webp",
    "name": "(Greater Barghest) Mutation - Vestigial Arm Strike",
    "type": "action"
}
