{
    "_id": "wh2T2L5SMsa32RyE",
    "data": {
        "actionCategory": {
            "value": "offensive"
        },
        "actionType": {
            "value": "passive"
        },
        "actions": {
            "value": null
        },
        "description": {
            "value": "<p>The lich's hand Strike deals cold damage instead of negative, and instead of being paralyzed, the target is @Compendium[pf2e.conditionitems.Slowed]{Slowed 2}.</p>\n<p>A successful <span data-pf2-check=\"fortitude\" data-pf2-dc=\"\" data-pf2-traits=\"arcane,curse,necromancy\" data-pf2-label=\"Cold Beyond Cold DC\" data-pf2-show-dc=\"gm\">Fortitude</span> save reduces this to @Compendium[pf2e.conditionitems.Slowed]{Slowed 1} (or negates it on a critical success).</p>"
        },
        "requirements": {
            "value": ""
        },
        "rules": [],
        "source": {
            "value": "Pathfinder Bestiary"
        },
        "traits": {
            "custom": "",
            "rarity": {
                "value": "common"
            },
            "value": []
        },
        "trigger": {
            "value": ""
        },
        "weapon": {
            "value": ""
        }
    },
    "effects": [],
    "flags": {},
    "img": "systems/pf2e/icons/actions/Passive.webp",
    "name": "(Lich) Cold Beyond Cold",
    "type": "action"
}
