{
    "_id": "ImdKLPgazv4MSI0F",
    "data": {
        "abilities": {
            "cha": {
                "mod": 4
            },
            "con": {
                "mod": 1
            },
            "dex": {
                "mod": 1
            },
            "int": {
                "mod": 3
            },
            "str": {
                "mod": 0
            },
            "wis": {
                "mod": 2
            }
        },
        "attributes": {
            "ac": {
                "details": "",
                "value": 13
            },
            "allSaves": {
                "value": ""
            },
            "hp": {
                "details": "",
                "max": 8,
                "temp": 0,
                "value": 8
            },
            "initiative": {
                "ability": "perception"
            },
            "perception": {
                "value": 6
            },
            "shield": {
                "ac": 0,
                "brokenThreshold": "0",
                "hardness": 0,
                "max": "0",
                "value": 0
            },
            "speed": {
                "otherSpeeds": [],
                "value": "25"
            }
        },
        "details": {
            "alignment": {
                "value": "LN"
            },
            "blurb": "",
            "creatureType": "",
            "level": {
                "value": -1
            },
            "privateNotes": "",
            "publicNotes": "<p>Barristers may serve as criminal prosecutors or as legal advocates, defending the rights of those accused of crimes or named as defendants in civil cases. In a court case or other legal proceeding, the barrister is a 4th-level challenge.</p>\n<hr />\n<p>Larger societies rely on those with the authority and the ability to interpret and enforce laws. In good-aligned societies, these officials carry out their duties fairly. In neutral and evil ones, these officials can be harsh and cruel (with an altered alignment to reflect this), imposing severe punishments on those who can't pay for mercy.</p>",
            "source": {
                "value": "Pathfinder Gamemastery Guide"
            }
        },
        "resources": {},
        "saves": {
            "fortitude": {
                "saveDetail": "",
                "value": 3
            },
            "reflex": {
                "saveDetail": "",
                "value": 3
            },
            "will": {
                "saveDetail": "",
                "value": 12
            }
        },
        "traits": {
            "ci": [],
            "di": {
                "custom": "",
                "value": []
            },
            "dr": [],
            "dv": [],
            "languages": {
                "custom": "",
                "selected": [],
                "value": [
                    "common"
                ]
            },
            "rarity": {
                "value": "common"
            },
            "senses": {
                "value": ""
            },
            "size": {
                "value": "med"
            },
            "traits": {
                "custom": "",
                "value": [
                    "human",
                    "humanoid"
                ]
            }
        }
    },
    "effects": [],
    "flags": {},
    "img": "systems/pf2e/icons/default-icons/npc.svg",
    "items": [
        {
            "_id": "Ao7VlJhCpiWg1j18",
            "data": {
                "baseItem": null,
                "brokenThreshold": {
                    "value": 0
                },
                "bulkCapacity": {
                    "value": ""
                },
                "collapsed": {
                    "value": false
                },
                "containerId": {
                    "value": ""
                },
                "description": {
                    "value": "<p>Fine clothing, suitable for a noble or royal, is made with expensive fabrics, precious metals, and intricate patterns.</p>"
                },
                "equipped": {
                    "value": true
                },
                "equippedBulk": {
                    "value": ""
                },
                "hardness": {
                    "value": 0
                },
                "hp": {
                    "value": 0
                },
                "identification": {
                    "misidentified": {},
                    "status": "identified",
                    "unidentified": {
                        "data": {
                            "description": {
                                "value": ""
                            }
                        },
                        "img": "",
                        "name": ""
                    }
                },
                "invested": {
                    "value": false
                },
                "level": {
                    "value": 0
                },
                "maxHp": {
                    "value": 0
                },
                "negateBulk": {
                    "value": ""
                },
                "preciousMaterial": {
                    "value": ""
                },
                "preciousMaterialGrade": {
                    "value": ""
                },
                "price": {
                    "value": "2 gp"
                },
                "quantity": {
                    "value": 1
                },
                "rules": [],
                "size": {
                    "value": "med"
                },
                "slug": "clothing-fine",
                "source": {
                    "value": "Pathfinder Core Rulebook"
                },
                "stackGroup": {
                    "value": ""
                },
                "traits": {
                    "custom": "",
                    "rarity": {
                        "value": "common"
                    },
                    "value": []
                },
                "usage": {
                    "value": "worn"
                },
                "weight": {
                    "value": "L"
                }
            },
            "effects": [],
            "flags": {
                "core": {
                    "sourceId": "Compendium.pf2e.equipment-srd.jJZbdMHMdh8UL2j8"
                }
            },
            "img": "systems/pf2e/icons/equipment/adventuring-gear/clothes-fine.webp",
            "name": "Court Garb",
            "sort": 100000,
            "type": "equipment"
        },
        {
            "_id": "h15HeWZxI5S8VAFk",
            "data": {
                "baseItem": null,
                "brokenThreshold": {
                    "value": 0
                },
                "bulkCapacity": {
                    "value": ""
                },
                "collapsed": {
                    "value": false
                },
                "containerId": {
                    "value": ""
                },
                "description": {
                    "value": "<p>Scholarly journals are uncommon. Each scholarly journal is a folio on a very specific topic, such as vampires or the history of a single town or neighborhood of a city. If you spend 1 minute referencing an academic journal before attempting a skill check to Recall Knowledge about the subject, you gain a +1 item bonus to the check. A compendium of journals costs five times as much as a single journal and requires both hands to use; each compendium contains several journals and grants its bonus on a broader topic, such as all undead or a whole city. The GM determines what scholarly journals are available in any location.</p>"
                },
                "equipped": {
                    "value": true
                },
                "equippedBulk": {
                    "value": ""
                },
                "hardness": {
                    "value": 0
                },
                "hp": {
                    "value": 0
                },
                "identification": {
                    "misidentified": {},
                    "status": "identified",
                    "unidentified": {
                        "data": {
                            "description": {
                                "value": ""
                            }
                        },
                        "img": "",
                        "name": ""
                    }
                },
                "invested": {
                    "value": false
                },
                "level": {
                    "value": 3
                },
                "maxHp": {
                    "value": 0
                },
                "negateBulk": {
                    "value": ""
                },
                "preciousMaterial": {
                    "value": ""
                },
                "preciousMaterialGrade": {
                    "value": ""
                },
                "price": {
                    "value": "6 gp"
                },
                "quantity": {
                    "value": 1
                },
                "rules": [],
                "size": {
                    "value": "med"
                },
                "slug": "scholarly-journal",
                "source": {
                    "value": "Pathfinder Core Rulebook"
                },
                "stackGroup": {
                    "value": ""
                },
                "traits": {
                    "custom": "",
                    "rarity": {
                        "value": "uncommon"
                    },
                    "value": []
                },
                "usage": {
                    "value": "held-in-one-hand"
                },
                "weight": {
                    "value": "L"
                }
            },
            "effects": [],
            "flags": {
                "core": {
                    "sourceId": "Compendium.pf2e.equipment-srd.hywANJCzT7hMgWna"
                }
            },
            "img": "systems/pf2e/icons/equipment/adventuring-gear/scholarly-journal.webp",
            "name": "Law Book",
            "sort": 200000,
            "type": "equipment"
        },
        {
            "_id": "5LBJiAB7NABdIDC2",
            "data": {
                "baseItem": null,
                "brokenThreshold": {
                    "value": 0
                },
                "bulkCapacity": {
                    "value": ""
                },
                "collapsed": {
                    "value": false
                },
                "containerId": {
                    "value": ""
                },
                "description": {
                    "value": "<p>Using a writing set, you can draft correspondence and scribe scrolls. A set includes stationery, including a variety of paper and parchment, as well as ink, a quill or inkpen, sealing wax, and a simple seal. If you've written a large amount, you can refill your kit with extra ink and paper.</p>"
                },
                "equipped": {
                    "value": false
                },
                "equippedBulk": {
                    "value": ""
                },
                "hardness": {
                    "value": 0
                },
                "hp": {
                    "value": 0
                },
                "identification": {
                    "misidentified": {},
                    "status": "identified",
                    "unidentified": {
                        "data": {
                            "description": {
                                "value": ""
                            }
                        },
                        "img": "",
                        "name": ""
                    }
                },
                "invested": {
                    "value": false
                },
                "level": {
                    "value": 0
                },
                "maxHp": {
                    "value": 0
                },
                "negateBulk": {
                    "value": "0"
                },
                "preciousMaterial": {
                    "value": ""
                },
                "preciousMaterialGrade": {
                    "value": ""
                },
                "price": {
                    "value": "1 gp"
                },
                "quantity": {
                    "value": 1
                },
                "rules": [],
                "size": {
                    "value": "med"
                },
                "slug": "writing-set",
                "source": {
                    "value": "Pathfinder Core Rulebook"
                },
                "stackGroup": {
                    "value": ""
                },
                "traits": {
                    "custom": "",
                    "rarity": {
                        "value": "common"
                    },
                    "value": []
                },
                "usage": {
                    "value": "held-in-one-hand"
                },
                "weight": {
                    "value": "L"
                }
            },
            "effects": [],
            "flags": {
                "core": {
                    "sourceId": "Compendium.pf2e.equipment-srd.QJb8S927Yj81EgHH"
                }
            },
            "img": "systems/pf2e/icons/equipment/adventuring-gear/writing-set.webp",
            "name": "Writing Set",
            "sort": 300000,
            "type": "equipment"
        },
        {
            "_id": "a6VT956imq0UeyhM",
            "data": {
                "attack": {
                    "value": ""
                },
                "attackEffects": {
                    "value": []
                },
                "bonus": {
                    "value": 4
                },
                "damageRolls": {
                    "0": {
                        "damage": "1d4",
                        "damageType": "bludgeoning"
                    }
                },
                "description": {
                    "value": ""
                },
                "rules": [],
                "slug": null,
                "source": {
                    "value": ""
                },
                "traits": {
                    "custom": "",
                    "rarity": {
                        "value": "common"
                    },
                    "value": [
                        "agile",
                        "nonlethal"
                    ]
                },
                "weaponType": {
                    "value": "melee"
                }
            },
            "effects": [],
            "flags": {},
            "img": "systems/pf2e/icons/default-icons/melee.svg",
            "name": "Fist",
            "sort": 400000,
            "type": "melee"
        },
        {
            "_id": "cz2QOg6QSmJNA3YL",
            "data": {
                "actionCategory": {
                    "value": "interaction"
                },
                "actionType": {
                    "value": "passive"
                },
                "actions": {
                    "value": null
                },
                "description": {
                    "value": "<p>A barrister gains a +2 circumstance bonus to Diplomacy checks to @Compendium[pf2e.actionspf2e.Make an Impression]{Make an Impression} or @Compendium[pf2e.actionspf2e.Request]{Request} something of the deciding members within a courtroom.</p>\n<p>If the barrister successfully @Compendium[pf2e.actionspf2e.Perform]{Performs} against a <span data-pf2-check=\"performance\" data-pf2-dc=\"20\" data-pf2-label=\"Sway the Judge and Jury DC\" data-pf2-show-dc=\"gm\">Performance</span> during the 20 minutes prior to the check, they increase the circumstance bonus to +4.</p>"
                },
                "requirements": {
                    "value": ""
                },
                "rules": [
                    {
                        "key": "ToggleProperty",
                        "property": "flags.pf2e.rollOptions.all.sway-judge-and-jury"
                    },
                    {
                        "key": "ToggleProperty",
                        "label": "Sway the Judge and Jury - Successful Performance",
                        "property": "flags.pf2e.rollOptions.all.sway-judge-and-jury-perform"
                    },
                    {
                        "key": "FlatModifier",
                        "predicate": {
                            "all": [
                                "sway-judge-and-jury"
                            ],
                            "any": [
                                "action:make-an-impression",
                                "action:request"
                            ]
                        },
                        "selector": "diplomacy",
                        "type": "circumstance",
                        "value": 2
                    },
                    {
                        "key": "FlatModifier",
                        "predicate": {
                            "all": [
                                "sway-judge-and-jury-perform"
                            ],
                            "any": [
                                "action:make-an-impression",
                                "action:request"
                            ]
                        },
                        "selector": "diplomacy",
                        "type": "circumstance",
                        "value": 4
                    }
                ],
                "slug": null,
                "source": {
                    "value": ""
                },
                "traits": {
                    "custom": "",
                    "rarity": {
                        "value": "common"
                    },
                    "value": []
                },
                "trigger": {
                    "value": ""
                },
                "weapon": {
                    "value": ""
                }
            },
            "effects": [],
            "flags": {},
            "img": "systems/pf2e/icons/actions/Passive.webp",
            "name": "Sway the Judge and Jury",
            "sort": 500000,
            "type": "action"
        },
        {
            "_id": "pvLUpob2OzcBpXiY",
            "data": {
                "actionCategory": {
                    "value": "offensive"
                },
                "actionType": {
                    "value": "action"
                },
                "actions": {
                    "value": null
                },
                "description": {
                    "value": "<p>The barrister uses existing case law to undermine their opposition. If they succeed at a <span data-pf2-check=\"legal-lore\" data-pf2-dc=\"20\" data-pf2-traits=\"auditory,linguistic\" data-pf2-label=\"Cite Precedent DC\" data-pf2-show-dc=\"gm\">Legal Lore</span> check, they impose a -2 circumstance penalty on the next Diplomacy check an opponent attempts in a legal argument.</p>\n<p>Any further attempts to Cite Precedent fail until a new topic with different precedents is being argued.</p>\n<hr />\n<p>@Compendium[pf2e.bestiary-effects.Effect: Cite Precedent]{Effect: Cite Precedent}</p>"
                },
                "requirements": {
                    "value": ""
                },
                "rules": [],
                "slug": null,
                "source": {
                    "value": ""
                },
                "traits": {
                    "custom": "",
                    "rarity": {
                        "value": "common"
                    },
                    "value": [
                        "auditory",
                        "linguistic"
                    ]
                },
                "trigger": {
                    "value": ""
                },
                "weapon": {
                    "value": ""
                }
            },
            "effects": [],
            "flags": {},
            "img": "systems/pf2e/icons/actions/OneAction.webp",
            "name": "Cite Precedent",
            "sort": 600000,
            "type": "action"
        },
        {
            "_id": "K7DsIRrud3mdbwWC",
            "data": {
                "description": {
                    "value": ""
                },
                "item": {
                    "value": 0
                },
                "mod": {
                    "value": 10
                },
                "proficient": {
                    "value": 0
                },
                "rules": [],
                "slug": null,
                "source": {
                    "value": ""
                },
                "traits": {
                    "custom": "",
                    "rarity": {
                        "value": "common"
                    },
                    "value": []
                }
            },
            "effects": [],
            "flags": {},
            "img": "systems/pf2e/icons/default-icons/lore.svg",
            "name": "Deception",
            "sort": 700000,
            "type": "lore"
        },
        {
            "_id": "GITOeYLXNO0pvrYD",
            "data": {
                "description": {
                    "value": ""
                },
                "item": {
                    "value": 0
                },
                "mod": {
                    "value": 12
                },
                "proficient": {
                    "value": 0
                },
                "rules": [],
                "slug": null,
                "source": {
                    "value": ""
                },
                "traits": {
                    "custom": "",
                    "rarity": {
                        "value": "common"
                    },
                    "value": []
                }
            },
            "effects": [],
            "flags": {},
            "img": "systems/pf2e/icons/default-icons/lore.svg",
            "name": "Diplomacy",
            "sort": 800000,
            "type": "lore"
        },
        {
            "_id": "iDsCIJ7Gzk9ENl2h",
            "data": {
                "description": {
                    "value": ""
                },
                "item": {
                    "value": 0
                },
                "mod": {
                    "value": 13
                },
                "proficient": {
                    "value": 0
                },
                "rules": [],
                "slug": null,
                "source": {
                    "value": ""
                },
                "traits": {
                    "custom": "",
                    "rarity": {
                        "value": "common"
                    },
                    "value": []
                }
            },
            "effects": [],
            "flags": {},
            "img": "systems/pf2e/icons/default-icons/lore.svg",
            "name": "Legal Lore",
            "sort": 900000,
            "type": "lore"
        },
        {
            "_id": "fPvVpmoy5AFiILpS",
            "data": {
                "description": {
                    "value": ""
                },
                "item": {
                    "value": 0
                },
                "mod": {
                    "value": 10
                },
                "proficient": {
                    "value": 0
                },
                "rules": [],
                "slug": null,
                "source": {
                    "value": ""
                },
                "traits": {
                    "custom": "",
                    "rarity": {
                        "value": "common"
                    },
                    "value": []
                }
            },
            "effects": [],
            "flags": {},
            "img": "systems/pf2e/icons/default-icons/lore.svg",
            "name": "Performance",
            "sort": 1000000,
            "type": "lore"
        },
        {
            "_id": "P3lxZtWirOKJbkse",
            "data": {
                "description": {
                    "value": ""
                },
                "item": {
                    "value": 0
                },
                "mod": {
                    "value": 9
                },
                "proficient": {
                    "value": 0
                },
                "rules": [],
                "slug": null,
                "source": {
                    "value": ""
                },
                "traits": {
                    "custom": "",
                    "rarity": {
                        "value": "common"
                    },
                    "value": []
                }
            },
            "effects": [],
            "flags": {},
            "img": "systems/pf2e/icons/default-icons/lore.svg",
            "name": "Society",
            "sort": 1100000,
            "type": "lore"
        }
    ],
    "name": "Barrister",
    "token": {
        "disposition": -1,
        "height": 1,
        "img": "systems/pf2e/icons/default-icons/npc.svg",
        "name": "Barrister",
        "width": 1
    },
    "type": "npc"
}
