{
    "_id": "Pmi71NUPAIE3YMws",
    "data": {
        "attributes": {
            "ac": {
                "value": 27
            },
            "hardness": 0,
            "hasHealth": true,
            "hp": {
                "details": "",
                "max": 130,
                "temp": 0,
                "tempmax": 0,
                "value": 130
            },
            "stealth": {
                "details": "",
                "value": 16
            }
        },
        "creatureType": "",
        "customModifiers": {},
        "details": {
            "description": "Blasts of fire and smoke pour out of the tunnel walls to coalesce into the burning form of Dahak himself; a PC who succeeds at a DC 20 Religion check to Recall Knowledge notes that the fiery dragon closely resembles classical depictions of the draconic god of destruction.",
            "disable": "Religion DC 26 (expert) to utter prayers to a non-evil deity to counteract Dahak's presence (prayers to Apsu allow this check to be made if the character is merely trained in Religion), Thievery DC 30 (expert) to divert the hazard's energies back upon themselves, or a successful dispel magic (4th level; counteract DC 26).",
            "isComplex": true,
            "level": {
                "value": 8
            },
            "reset": "The vision of Dahak deactivates and resets automatically once no creatures remain within the Huntergate way station.",
            "routine": "(2 actions) The vision of Dahak manifests next to the creature that is closest to the center of the way station, then uses its Breath Weapon in a direction that catches the most possible targets in its area."
        },
        "saves": {
            "fortitude": {
                "saveDetail": "",
                "value": 17
            },
            "reflex": {
                "saveDetail": "",
                "value": 13
            },
            "will": {
                "saveDetail": "",
                "value": 0
            }
        },
        "source": {
            "value": ""
        },
        "statusEffects": [],
        "traits": {
            "ci": [],
            "di": {
                "custom": "",
                "selected": {},
                "value": [
                    "critical-hits",
                    "fire",
                    "object-immunities",
                    "precision"
                ]
            },
            "dr": [],
            "dv": [
                {
                    "exceptions": "",
                    "label": "Cold",
                    "type": "cold",
                    "value": "10"
                }
            ],
            "rarity": {
                "value": "common"
            },
            "size": {
                "value": "med"
            },
            "traits": {
                "custom": "Rare",
                "value": [
                    "fire",
                    "magical"
                ]
            }
        }
    },
    "effects": [],
    "flags": {},
    "img": "systems/pf2e/icons/default-icons/hazard.svg",
    "items": [
        {
            "_id": "7wokY8VtRk0KvDhV",
            "data": {
                "actionCategory": {
                    "value": ""
                },
                "actionType": {
                    "value": "reaction"
                },
                "actions": {
                    "value": null
                },
                "description": {
                    "value": "<p data-visibility=\"gm\"><strong>Trigger</strong>: A creature is within the way station.</p>\n<p><strong>Effect</strong>: The vision of Dahak appears in a 15-foot space adjacent to that creature and rolls initiative.</p>"
                },
                "requirements": {
                    "value": ""
                },
                "rules": [],
                "slug": null,
                "source": {
                    "value": ""
                },
                "traits": {
                    "custom": "",
                    "rarity": {
                        "value": "common"
                    },
                    "selected": {},
                    "value": []
                },
                "trigger": {
                    "value": ""
                },
                "weapon": {
                    "value": ""
                }
            },
            "effects": [],
            "flags": {},
            "img": "systems/pf2e/icons/actions/Reaction.webp",
            "name": "Manifest",
            "sort": 100000,
            "type": "action"
        },
        {
            "_id": "Omu620MVyXotE5Nc",
            "data": {
                "actionCategory": {
                    "value": ""
                },
                "actionType": {
                    "value": "action"
                },
                "actions": {
                    "value": 2
                },
                "description": {
                    "value": "<p>The vision of Dahak unleashes a blast of fire from its burning maw, creating a 60-foot cone that deals [[/r {6d6}[fire]]]{6d6 fire damage} to all creatures within (<span data-pf2-check=\"reflex\" data-pf2-dc=\"26\" data-pf2-traits=\"divine,evocation,fire,damaging-effect\" data-pf2-label=\"Breath Weapon DC\" data-pf2-show-dc=\"gm\">basic Reflex</span> save).</p>"
                },
                "requirements": {
                    "value": ""
                },
                "rules": [],
                "slug": null,
                "source": {
                    "value": ""
                },
                "traits": {
                    "custom": "",
                    "rarity": {
                        "value": "common"
                    },
                    "value": [
                        "divine",
                        "evocation",
                        "fire"
                    ]
                },
                "trigger": {
                    "value": ""
                },
                "weapon": {
                    "value": ""
                }
            },
            "effects": [],
            "flags": {},
            "img": "systems/pf2e/icons/actions/TwoActions.webp",
            "name": "Breath Weapon",
            "sort": 200000,
            "type": "action"
        }
    ],
    "name": "Vision of Dahak",
    "token": {
        "disposition": 0,
        "height": 1,
        "img": "systems/pf2e/icons/default-icons/hazard.svg",
        "name": "Vision of Dahak",
        "width": 1
    },
    "type": "hazard"
}
