{
    "_id": "nI9pM4SeM39SRVaR",
    "content": "<table class=\"pf2-table\">\n<thead>\n<tr>\n<th>\n<h3><strong>Name</strong></h3>\n</th>\n<th>\n<h3><strong>Crit Effect</strong></h3>\n</th>\n<th>\n<h3><strong>Type</strong></h3>\n</th>\n</tr>\n</thead>\n<tbody>\n<tr>\n<td>\n<h3>Broken Leg</h3>\n</td>\n<td>\n<h3>The target takes a -15-foot status penalty to its land Speed until healed.</h3>\n</td>\n<td>\n<h3>Bludgeoning</h3>\n</td>\n</tr>\n<tr>\n<td>\n<h3>Grazing Hit</h3>\n</td>\n<td>\n<h3>Normal damage. The target is stunned 3.</h3>\n</td>\n<td>\n<h3>Piercing</h3>\n</td>\n</tr>\n<tr>\n<td>\n<h3>Swing Through</h3>\n</td>\n<td>\n<h3>Make an additional attack against a foe adjacent to the original target, using the same attack modifier as the original attack.</h3>\n</td>\n<td>\n<h3>Slashing</h3>\n</td>\n</tr>\n<tr>\n<td>\n<h3>Maximum Effect</h3>\n</td>\n<td>\n<h3>Don't roll for damage. You deal the maximum possible critical hit damage with this attack.</h3>\n</td>\n<td>\n<h3>Bomb or Spell</h3>\n</td>\n</tr>\n</tbody>\n</table>\n<h3 style=\"text-align: left;\"> </h3>",
    "flags": {},
    "name": "Critical Hit Deck #41",
    "permission": {
        "default": 0
    }
}
