{
    "_id": "wHwwHq9RcOUvwFeB",
    "content": "<table class=\"pf2-table\">\n<thead>\n<tr>\n<th>\n<h3><strong>Name</strong></h3>\n</th>\n<th>\n<h3><strong>Crit Effect</strong></h3>\n</th>\n<th>\n<h3><strong>Type</strong></h3>\n</th>\n</tr>\n</thead>\n<tbody>\n<tr>\n<td>\n<h3>Bony Masher</h3>\n</td>\n<td>\n<h3>Normal damage. Either the target is clumsy 2 and takes a -10-foot status penalty to land Speed or is clumsy 2 and can't use one of its arms (your choice). Either effect last until healed.</h3>\n</td>\n<td>\n<h3>Bludgeoning</h3>\n</td>\n</tr>\n<tr>\n<td>\n<h3>Punctured Lung</h3>\n</td>\n<td>\n<h3>The target is <span id=\"ctl00_MainContent_DetailedOutput\"></span>Suffocating until subject to magical healing.</h3>\n</td>\n<td>\n<h3>Piercing</h3>\n</td>\n</tr>\n<tr>\n<td>\n<h3>Pain and Simple</h3>\n</td>\n<td>\n<h3>Triple damage.</h3>\n</td>\n<td>\n<h3>Slashing</h3>\n</td>\n</tr>\n<tr>\n<td>\n<h3>Hypnotic Link</h3>\n</td>\n<td>\n<h3>If this is a spell, the target takes normal damage and is controlled by you until the end of its next turn.</h3>\n</td>\n<td>\n<h3>Bomb or Spell</h3>\n</td>\n</tr>\n</tbody>\n</table>\n<h3 style=\"text-align: left;\"> </h3>",
    "flags": {},
    "name": "Critical Hit Deck #22",
    "permission": {
        "default": 0
    }
}
