{
    "_id": "n5vwBnLSlIXL9ptp",
    "data": {
        "actionCategory": {
            "value": "interaction"
        },
        "actionType": {
            "value": "action"
        },
        "actions": {
            "value": 3
        },
        "description": {
            "value": "<p>Your eidolon appears in an open space adjacent to you, and can then take a single action. If your eidolon was already manifested, you unmanifest it instead.</p>\n<p>The conduit that allows your eidolon to manifest is also a tether between you. Your eidolon must remain within 100 feet of you at all times and can't willingly go beyond that limit. If forced beyond this distance, or if you are reduced to 0 Hit Points, your eidolon's physical form dissolves: your eidolon unmanifests, and you need to use Manifest Eidolon to manifest it again.</p>\n<hr />\n<p><strong>Special</strong> This activity has the trait matching your eidolon's tradition (arcane, divine, occult, or primal).</p>"
        },
        "requirements": {
            "value": ""
        },
        "rules": [],
        "source": {
            "value": ""
        },
        "traits": {
            "custom": "",
            "rarity": {
                "value": "common"
            },
            "value": [
                "concentrate",
                "conjuration",
                "manipulate",
                "summoner",
                "teleportation"
            ]
        },
        "trigger": {
            "value": ""
        },
        "weapon": {
            "value": ""
        }
    },
    "effects": [],
    "flags": {},
    "img": "systems/pf2e/icons/actions/ThreeActions.webp",
    "name": "Manifest Eidolon",
    "type": "action"
}
