{
    "_id": "UDfVCATxdLdSzJYJ",
    "data": {
        "description": {
            "value": "<p>After Activating the mask, you also gain a +1 item bonus to Fortitude saves against inhaled effects; this bonus is increased to +2 against the deadly volcanic gas known around Terwa Lake as Dead Man's Breath, and possibly against other similar volcanic gases at the GM's discretion.</p>"
        },
        "duration": {
            "expiry": "turn-start",
            "sustained": false,
            "unit": "minutes",
            "value": 10
        },
        "level": {
            "value": 2
        },
        "rules": [
            {
                "key": "FlatModifier",
                "label": "Red-Rib Gill (Inhaled Effects)",
                "predicate": {
                    "all": [
                        "inhaled"
                    ]
                },
                "selector": "fortitude",
                "type": "item",
                "value": 1
            },
            {
                "key": "FlatModifier",
                "label": "Red-Rib Gill (Dead Man's Breath)",
                "predicate": {
                    "all": [
                        "dead-mans-breath"
                    ]
                },
                "selector": "fortitude",
                "type": "item",
                "value": 2
            }
        ],
        "source": {
            "value": "Pathfinder #171: Hurricane's Howl"
        },
        "start": {
            "initiative": null,
            "value": 0
        },
        "target": null,
        "tokenIcon": {
            "show": true
        },
        "traits": {
            "custom": "",
            "rarity": {
                "value": "common"
            },
            "value": []
        }
    },
    "effects": [],
    "flags": {},
    "img": "systems/pf2e/icons/equipment/worn-items/apex-items/headband-of-inspired-wisdom.webp",
    "name": "Effect: Red-Rib Gill Mask (Lesser)",
    "type": "effect"
}
