{
    "_id": "7u3dkPN8iSpW4QPB",
    "data": {
        "attributes": {
            "ac": {
                "value": 0
            },
            "hardness": 0,
            "hasHealth": true,
            "hp": {
                "details": "",
                "max": 0,
                "temp": 0,
                "value": 0
            },
            "stealth": {
                "details": "<p>(trained), or DC 0 and no minimum proficiency if the surface is disturbed.</p>",
                "value": 10
            }
        },
        "creatureType": "",
        "details": {
            "description": "<p>A 15-foot-wide patch of water and sand attempts to submerge creatures that step onto it.</p>",
            "disable": "<p><span data-pf2-check=\"survival\" data-pf2-traits=\"environmental\" data-pf2-label=\"Disturb Surface DC\" data-pf2-dc=\"16\" data-pf2-show-dc=\"gm\">Survival</span> (trained) to disturb the surface</p>",
            "isComplex": true,
            "level": {
                "value": 2
            },
            "reset": "<p>The hazard still submerges anyone who walks in, but the surface doesn't become hidden again until it settles over the course of 24 hours.</p>",
            "routine": "<p><span class=\"pf2-icon\">1</span> On its initiative, the quicksand pulls down each creature within it. A creature that was submerged up to its waist becomes submerged up to its neck, and a creature that was submerged up to its neck is pulled under and has to hold its breath to avoid suffocation.</p>\n<p>A creature in the quicksand can attempt a <span data-pf2-check=\"athletics\" data-pf2-traits=\"action:swim,environmental\" data-pf2-label=\"Swim out of Quicksand DC\" data-pf2-dc=\"18\" data-pf2-show-dc=\"gm\">Athletics</span> check to Swim to either raise itself by one step if it's submerged to its neck or worse, or to move 5 feet if it's submerged only up to its waist. On a critical failure, the creature is pulled down one step. A creature that Swims out of the quicksand escapes the hazard and is prone in a space adjacent to the quicksand patch. Other creatures can Aid the creature, typically by using a rope or similar aid, or attempt to pull the creature out with their own DC 18 Athletics check, with the same results as if the creature attempted the check.</p>"
        },
        "saves": {
            "fortitude": {
                "saveDetail": "",
                "value": 0
            },
            "reflex": {
                "saveDetail": "",
                "value": 0
            },
            "will": {
                "saveDetail": "",
                "value": 0
            }
        },
        "source": {
            "value": ""
        },
        "statusEffects": [],
        "traits": {
            "ci": [],
            "di": {
                "custom": "",
                "selected": {},
                "value": []
            },
            "dr": [],
            "dv": [],
            "rarity": {
                "value": "uncommon"
            },
            "size": {
                "value": "med"
            },
            "traits": {
                "custom": "",
                "value": [
                    "environmental"
                ]
            }
        }
    },
    "effects": [],
    "flags": {},
    "img": "systems/pf2e/icons/default-icons/hazard.svg",
    "items": [
        {
            "_id": "U7YTe3fsfiaFtVPC",
            "data": {
                "actionCategory": {
                    "value": "interaction"
                },
                "actionType": {
                    "value": "free"
                },
                "actions": {
                    "value": null
                },
                "description": {
                    "value": "<p data-visibility=\"gm\"><strong>Trigger</strong> A Huge or smaller creature walks onto the quicksand;</p>\n<p><strong>Effect</strong> The triggering creature sinks into the quicksand up to its waist. The quicksand rolls initiative if it hasn't already.</p>"
                },
                "requirements": {
                    "value": ""
                },
                "rules": [],
                "slug": null,
                "source": {
                    "value": ""
                },
                "traits": {
                    "custom": "",
                    "rarity": {
                        "value": "common"
                    },
                    "value": []
                },
                "trigger": {
                    "value": ""
                }
            },
            "effects": [],
            "flags": {},
            "img": "systems/pf2e/icons/actions/FreeAction.webp",
            "name": "Submerge",
            "sort": 0,
            "type": "action"
        }
    ],
    "name": "Swampy Quicksand",
    "token": {
        "disposition": 0,
        "height": 1,
        "img": "systems/pf2e/icons/default-icons/hazard.svg",
        "name": "Swampy Quicksand",
        "width": 1
    },
    "type": "hazard"
}
