{
    "_id": "VGJF0jWWnA4ljfZE",
    "data": {
        "abilities": {
            "cha": {
                "mod": 8
            },
            "con": {
                "mod": 4
            },
            "dex": {
                "mod": 8
            },
            "int": {
                "mod": 2
            },
            "str": {
                "mod": 6
            },
            "wis": {
                "mod": 6
            }
        },
        "attributes": {
            "ac": {
                "details": "",
                "value": 39
            },
            "allSaves": {
                "value": ""
            },
            "hp": {
                "details": "",
                "max": 280,
                "temp": 0,
                "value": 280
            },
            "initiative": {
                "ability": "perception"
            },
            "perception": {
                "value": 30
            },
            "shield": {
                "ac": 0,
                "brokenThreshold": 0,
                "hardness": 0,
                "max": 0,
                "value": 0
            },
            "speed": {
                "details": "swiftness",
                "otherSpeeds": [
                    {
                        "type": "fly",
                        "value": "100"
                    }
                ],
                "value": "0"
            }
        },
        "details": {
            "alignment": {
                "value": "CE"
            },
            "blurb": "",
            "creatureType": "Elemental",
            "level": {
                "value": 16
            },
            "privateNotes": "",
            "publicNotes": "<p>This cloud of song and sound has been caught by the wind and carried across the air. While the melody on the wind might enjoy the beauty of music, it is by nature a destructive elemental force.</p>",
            "source": {
                "value": "Pathfinder #167: Ready? Fight!"
            }
        },
        "resources": {},
        "saves": {
            "fortitude": {
                "saveDetail": "",
                "value": 24
            },
            "reflex": {
                "saveDetail": "",
                "value": 32
            },
            "will": {
                "saveDetail": "",
                "value": 28
            }
        },
        "traits": {
            "attitude": {
                "value": "hostile"
            },
            "ci": [],
            "di": {
                "custom": "",
                "value": [
                    "bleed",
                    "paralyzed",
                    "poison",
                    "sleep"
                ]
            },
            "dr": [],
            "dv": [],
            "languages": {
                "custom": "",
                "selected": [],
                "value": [
                    "auran",
                    "tengu",
                    "tien"
                ]
            },
            "rarity": {
                "value": "rare"
            },
            "senses": {
                "value": "darkvision"
            },
            "size": {
                "value": "huge"
            },
            "traits": {
                "custom": "",
                "value": [
                    "air",
                    "elemental"
                ]
            }
        }
    },
    "effects": [],
    "flags": {},
    "img": "systems/pf2e/icons/default-icons/npc.svg",
    "items": [
        {
            "_id": "QaWyk1afljYBga0c",
            "data": {
                "attack": {
                    "value": ""
                },
                "attackEffects": {
                    "custom": "",
                    "value": [
                        "push"
                    ]
                },
                "bonus": {
                    "value": 32
                },
                "damageRolls": {
                    "0": {
                        "damage": "3d10+14",
                        "damageType": "bludgeoning"
                    }
                },
                "description": {
                    "value": ""
                },
                "rules": [],
                "slug": null,
                "source": {
                    "value": ""
                },
                "traits": {
                    "custom": "",
                    "rarity": {
                        "value": "common"
                    },
                    "value": [
                        "agile",
                        "finesse"
                    ]
                },
                "weaponType": {
                    "value": "melee"
                }
            },
            "effects": [],
            "flags": {},
            "img": "systems/pf2e/icons/default-icons/melee.svg",
            "name": "Wind Gust",
            "sort": 100000,
            "type": "melee"
        },
        {
            "_id": "HpLHoXbsdK98PiDh",
            "data": {
                "attack": {
                    "value": ""
                },
                "attackEffects": {
                    "value": []
                },
                "bonus": {
                    "value": 32
                },
                "damageRolls": {
                    "0": {
                        "damage": "3d8+14",
                        "damageType": "sonic"
                    }
                },
                "description": {
                    "value": ""
                },
                "rules": [],
                "slug": null,
                "source": {
                    "value": ""
                },
                "traits": {
                    "custom": "",
                    "rarity": {
                        "value": "common"
                    },
                    "value": [
                        "range-increment-70"
                    ]
                },
                "weaponType": {
                    "value": "ranged"
                }
            },
            "effects": [],
            "flags": {},
            "img": "systems/pf2e/icons/default-icons/melee.svg",
            "name": "Solid Refrain",
            "sort": 200000,
            "type": "melee"
        },
        {
            "_id": "42LsnRw0ara1e2xW",
            "data": {
                "actionCategory": {
                    "value": "interaction"
                },
                "actionType": {
                    "value": "passive"
                },
                "actions": {
                    "value": null
                },
                "description": {
                    "value": "<p>@Localize[PF2E.NPC.Abilities.Glossary.Darkvision]</p>"
                },
                "requirements": {
                    "value": ""
                },
                "rules": [],
                "slug": "darkvision",
                "source": {
                    "value": ""
                },
                "traits": {
                    "custom": "",
                    "rarity": {
                        "value": "common"
                    },
                    "value": []
                },
                "trigger": {
                    "value": ""
                },
                "weapon": {
                    "value": ""
                }
            },
            "effects": [],
            "flags": {
                "core": {
                    "sourceId": "Compendium.pf2e.bestiary-ability-glossary-srd.qCCLZhnp2HhP3Ex6"
                }
            },
            "img": "systems/pf2e/icons/actions/Passive.webp",
            "name": "Darkvision",
            "sort": 300000,
            "type": "action"
        },
        {
            "_id": "T0vnmUhrqmtMKLQD",
            "data": {
                "actionCategory": {
                    "value": "defensive"
                },
                "actionType": {
                    "value": "reaction"
                },
                "actions": {
                    "value": null
                },
                "description": {
                    "value": "<p data-visibility=\"gm\"><strong>Trigger</strong> A hostile creature within 30 feet creates an effect with the auditory trait that provides bonuses to itself or its allies;</p>\n<p><strong>Effect</strong> The melodic squall recreates the auditory effect, gaining the bonuses for itself and its allies as long as the original effect persists.</p>"
                },
                "requirements": {
                    "value": ""
                },
                "rules": [],
                "slug": null,
                "source": {
                    "value": ""
                },
                "traits": {
                    "custom": "",
                    "rarity": {
                        "value": "common"
                    },
                    "value": [
                        "auditory"
                    ]
                },
                "trigger": {
                    "value": ""
                },
                "weapon": {
                    "value": ""
                }
            },
            "effects": [],
            "flags": {},
            "img": "systems/pf2e/icons/actions/Reaction.webp",
            "name": "Hostile Duet",
            "sort": 400000,
            "type": "action"
        },
        {
            "_id": "rSpxgtewFq1FNp4L",
            "data": {
                "actionCategory": {
                    "value": "defensive"
                },
                "actionType": {
                    "value": "reaction"
                },
                "actions": {
                    "value": null
                },
                "description": {
                    "value": "<p data-visibility=\"gm\"><strong>Trigger</strong> The melodic squall is targeted by a spell with the auditory trait;</p>\n<p><strong>Effect</strong> The melodic squall attempts to counteract the spell. If it succeeds, the spell effect is caught in a blast of wind that sweeps it back to its origin, affecting the caster. Targets of the triggering effect other than the melody on the wind are still affected normally.</p>"
                },
                "requirements": {
                    "value": ""
                },
                "rules": [],
                "slug": null,
                "source": {
                    "value": ""
                },
                "traits": {
                    "custom": "",
                    "rarity": {
                        "value": "common"
                    },
                    "value": [
                        "auditory"
                    ]
                },
                "trigger": {
                    "value": ""
                },
                "weapon": {
                    "value": ""
                }
            },
            "effects": [],
            "flags": {},
            "img": "systems/pf2e/icons/actions/Reaction.webp",
            "name": "Retune",
            "sort": 500000,
            "type": "action"
        },
        {
            "_id": "RJUajmwcmdSx0tQb",
            "data": {
                "actionCategory": {
                    "value": "offensive"
                },
                "actionType": {
                    "value": "action"
                },
                "actions": {
                    "value": 1
                },
                "description": {
                    "value": "<p>The melodic squall sings in a sonorous chorus. Any creature in a 30-foot emanation must attempt a <span data-pf2-check=\"will\" data-pf2-dc=\"36\" data-pf2-traits=\"auditory,concentrate,enchantment,mental,primal\" data-pf2-label=\"Mesmerizing Melody DC\" data-pf2-show-dc=\"gm\">Will</span> save to resist becoming fascinated by the melody on the wind. A creature that succeeds at its save is temporarily immune for 24 hours.</p>\n<hr />\n<p><strong>Critical Success</strong> The creature is unaffected.</p>\n<p><strong>Success</strong> The creature is @Compendium[pf2e.conditionitems.Fascinated]{Fascinated} for 1 round.</p>\n<p><strong>Failure</strong> The creature is fascinated for [[/br 1d4 #rounds]]{1d4 rounds}.</p>"
                },
                "requirements": {
                    "value": ""
                },
                "rules": [],
                "slug": null,
                "source": {
                    "value": ""
                },
                "traits": {
                    "custom": "",
                    "rarity": {
                        "value": "common"
                    },
                    "value": [
                        "auditory",
                        "concentrate",
                        "enchantment",
                        "mental",
                        "primal"
                    ]
                },
                "trigger": {
                    "value": ""
                },
                "weapon": {
                    "value": ""
                }
            },
            "effects": [],
            "flags": {},
            "img": "systems/pf2e/icons/actions/OneAction.webp",
            "name": "Mesmerizing Melody",
            "sort": 600000,
            "type": "action"
        },
        {
            "_id": "rOyG05jMYSlAcSS5",
            "data": {
                "actionCategory": {
                    "value": "offensive"
                },
                "actionType": {
                    "value": "passive"
                },
                "actions": {
                    "value": null
                },
                "description": {
                    "value": "<p>The melody on the wind's movement doesn't trigger reactions.</p>"
                },
                "requirements": {
                    "value": ""
                },
                "rules": [],
                "slug": null,
                "source": {
                    "value": ""
                },
                "traits": {
                    "custom": "",
                    "rarity": {
                        "value": "common"
                    },
                    "value": []
                },
                "trigger": {
                    "value": ""
                },
                "weapon": {
                    "value": ""
                }
            },
            "effects": [],
            "flags": {},
            "img": "systems/pf2e/icons/actions/Passive.webp",
            "name": "Swiftness",
            "sort": 700000,
            "type": "action"
        },
        {
            "_id": "B0ACGOBzm6iH5fdI",
            "data": {
                "actionCategory": {
                    "value": "offensive"
                },
                "actionType": {
                    "value": "action"
                },
                "actions": {
                    "value": 1
                },
                "description": {
                    "value": "<p>@Localize[PF2E.NPC.Abilities.Glossary.Push]</p>"
                },
                "requirements": {
                    "value": ""
                },
                "rules": [],
                "slug": "push",
                "source": {
                    "value": ""
                },
                "traits": {
                    "custom": "",
                    "rarity": {
                        "value": "common"
                    },
                    "value": []
                },
                "trigger": {
                    "value": ""
                },
                "weapon": {
                    "value": ""
                }
            },
            "effects": [],
            "flags": {
                "core": {
                    "sourceId": "Compendium.pf2e.bestiary-ability-glossary-srd.t6cx9FOODmeZQNYl"
                }
            },
            "img": "systems/pf2e/icons/actions/OneAction.webp",
            "name": "Push",
            "sort": 800000,
            "type": "action"
        },
        {
            "_id": "YA860LZZWe43vErM",
            "data": {
                "actionCategory": {
                    "value": "offensive"
                },
                "actionType": {
                    "value": "action"
                },
                "actions": {
                    "value": 1
                },
                "description": {
                    "value": "<p>The melodic squall focuses intense sound at an inaudible frequency in a 100-foot line. Each creature in the line must attempt a <span data-pf2-check=\"fortitude\" data-pf2-traits=\"emotion, evocation, fear,\nmental, primal, sonic\" data-pf2-label=\"Subsonic Burst DC\" data-pf2-dc=\"34\" data-pf2-show-dc=\"gm\">Fortitude</span> save.</p>\n<p><strong>Success</strong> The creature is unaffected.</p>\n<p><strong>Failure</strong> The creature is @Compendium[pf2e.conditionitems.Frightened]{Frightened 1}.</p>\n<p><strong>Critical Failure</strong> The creature is @Compendium[pf2e.conditionitems.Frightened]{Frightened 2} and confused until the beginning of the melodic squall's next turn.</p>"
                },
                "requirements": {
                    "value": ""
                },
                "rules": [],
                "slug": null,
                "source": {
                    "value": ""
                },
                "traits": {
                    "custom": "",
                    "rarity": {
                        "value": "common"
                    },
                    "value": [
                        "mental",
                        "sonic",
                        "emotion",
                        "evocation",
                        "fear",
                        "primal"
                    ]
                },
                "trigger": {
                    "value": ""
                },
                "weapon": {
                    "value": ""
                }
            },
            "effects": [],
            "flags": {},
            "img": "systems/pf2e/icons/actions/OneAction.webp",
            "name": "Subsonic Burst",
            "sort": 900000,
            "type": "action"
        },
        {
            "_id": "8F9DzwfA0pkg7eVi",
            "data": {
                "description": {
                    "value": ""
                },
                "item": {
                    "value": 0
                },
                "mod": {
                    "value": 32
                },
                "proficient": {
                    "value": 0
                },
                "rules": [],
                "slug": null,
                "source": {
                    "value": ""
                },
                "traits": {
                    "custom": "",
                    "rarity": {
                        "value": "common"
                    },
                    "value": []
                }
            },
            "effects": [],
            "flags": {},
            "img": "systems/pf2e/icons/default-icons/lore.svg",
            "name": "Acrobatics",
            "sort": 1000000,
            "type": "lore"
        },
        {
            "_id": "hvrEDK9CilJcTv7G",
            "data": {
                "description": {
                    "value": ""
                },
                "item": {
                    "value": 0
                },
                "mod": {
                    "value": 32
                },
                "proficient": {
                    "value": 0
                },
                "rules": [],
                "slug": null,
                "source": {
                    "value": ""
                },
                "traits": {
                    "custom": "",
                    "rarity": {
                        "value": "common"
                    },
                    "value": []
                }
            },
            "effects": [],
            "flags": {},
            "img": "systems/pf2e/icons/default-icons/lore.svg",
            "name": "Performance",
            "sort": 1100000,
            "type": "lore"
        },
        {
            "_id": "7razkL4hs9Vkd59M",
            "data": {
                "description": {
                    "value": ""
                },
                "item": {
                    "value": 0
                },
                "mod": {
                    "value": 32
                },
                "proficient": {
                    "value": 0
                },
                "rules": [],
                "slug": null,
                "source": {
                    "value": ""
                },
                "traits": {
                    "custom": "",
                    "rarity": {
                        "value": "common"
                    },
                    "value": []
                }
            },
            "effects": [],
            "flags": {},
            "img": "systems/pf2e/icons/default-icons/lore.svg",
            "name": "Stealth",
            "sort": 1200000,
            "type": "lore"
        }
    ],
    "name": "Melodic Squall",
    "token": {
        "disposition": -1,
        "height": 3,
        "img": "systems/pf2e/icons/default-icons/npc.svg",
        "name": "Melodic Squall",
        "width": 3
    },
    "type": "npc"
}
