{
    "_id": "uhU0KajD09h5bw4e",
    "data": {
        "actionCategory": {
            "value": ""
        },
        "actionType": {
            "value": "passive"
        },
        "actions": {
            "value": null
        },
        "description": {
            "value": "<p>Your time spent in the hostile parts of the world has inured you to extreme climates.</p>\n<p>In your @Compendium[pf2e.feats-srd.Favored Terrain]{Favored Terrain}, you gain resistance equal to half your level to all environmental damage and are affected by temperature effects as though they were one step less severe (incredible heat or cold becomes extreme, extreme heat or cold becomes severe, and so on).</p>\n<p>When other creatures @Compendium[pf2e.actionspf2e.Follow the Expert]{Follow the Expert} with you as a guide in your favored terrain, they too treat temperature effects as one step less severe.</p>"
        },
        "featType": {
            "value": "archetype"
        },
        "level": {
            "value": 4
        },
        "location": "",
        "prerequisites": {
            "value": [
                {
                    "value": "Horizon Walker Dedication"
                }
            ]
        },
        "rules": [],
        "source": {
            "value": "Pathfinder Advanced Player's Guide"
        },
        "traits": {
            "custom": "",
            "rarity": {
                "value": "common"
            },
            "value": [
                "archetype"
            ]
        }
    },
    "effects": [],
    "flags": {},
    "img": "systems/pf2e/icons/features/feats/feats.webp",
    "name": "Acclimatization",
    "type": "feat"
}
