{
    "_id": "ypir96PNY6LBSIWT",
    "data": {
        "actionCategory": {
            "value": ""
        },
        "actionType": {
            "value": "passive"
        },
        "actions": {
            "value": null
        },
        "description": {
            "value": "<p>You can identify alchemical items quickly. When using the Crafting skill to @Compendium[pf2e.actionspf2e.Identify Alchemy]{Identify Alchemy} on an alchemical item you hold, you can do so as a single action, which has the concentrate and manipulate traits, instead of spending 10 minutes.</p>\n<p>If you have the formula for the item you are attempting to identify, you gain a +2 circumstance bonus to your check, and if you roll a critical failure, you get a failure instead.</p>"
        },
        "featType": {
            "value": "class"
        },
        "level": {
            "value": 1
        },
        "location": "",
        "prerequisites": {
            "value": [
                {
                    "value": "trained in Crafting"
                }
            ]
        },
        "rules": [
            {
                "key": "FlatModifier",
                "label": "Alchemical Savant (identify alchemical items with formula)",
                "predicate": {
                    "all": [
                        "action:identify-alchemy",
                        "have-formula"
                    ]
                },
                "selector": "crafting",
                "type": "circumstance",
                "value": 2
            },
            {
                "key": "Note",
                "predicate": {
                    "all": [
                        "action:identify-alchemy"
                    ]
                },
                "selector": "crafting",
                "text": "<p class='compact-text'><strong>{item|name}</strong> If have the formula for the item you're identifying, and you roll a critical failure, you get a failure instead.</p>"
            }
        ],
        "source": {
            "value": "Pathfinder Core Rulebook"
        },
        "traits": {
            "custom": "",
            "rarity": {
                "value": "common"
            },
            "value": [
                "alchemist"
            ]
        }
    },
    "effects": [],
    "flags": {},
    "img": "systems/pf2e/icons/features/feats/feats.webp",
    "name": "Alchemical Savant",
    "type": "feat"
}
