{
    "_id": "keMP6xVg4fMloczj",
    "data": {
        "actionCategory": {
            "value": ""
        },
        "actionType": {
            "value": "passive"
        },
        "actions": {
            "value": null
        },
        "description": {
            "value": "<p>You are a cel rau, child of a strigoi, one of the first vampires to walk Golarion. Your heritage ties you to the Shadow Plane and grants you strange resilience to light and darkness alike. You gain a +1 circumstance bonus to saving throws against effects with the darkness, light, or shadow traits, and whenever you become @Compendium[pf2e.conditionitems.Dazzled]{Dazzled} or @Compendium[pf2e.conditionitems.Blinded]{Blinded} for at least 2 rounds, you can reduce the duration by 1 round.</p>"
        },
        "featType": {
            "value": "ancestry"
        },
        "level": {
            "value": 1
        },
        "location": "",
        "prerequisites": {
            "value": []
        },
        "rules": [],
        "source": {
            "value": "Pathfinder Lost Omens: Ancestry Guide"
        },
        "traits": {
            "custom": "",
            "rarity": {
                "value": "common"
            },
            "value": [
                "dhampir",
                "lineage"
            ]
        }
    },
    "effects": [],
    "flags": {},
    "img": "systems/pf2e/icons/features/feats/feats.webp",
    "name": "Cel Rau",
    "type": "feat"
}
