{
    "_id": "S450JMWfF90oOcv9",
    "data": {
        "actionCategory": {
            "value": ""
        },
        "actionType": {
            "value": "action"
        },
        "actions": {
            "value": 3
        },
        "description": {
            "value": "<p><strong>Frequency</strong> once per minute</p>\n<hr />\n<p>With a burst of effort, you weave a path through your enemies, striking each in turn as you move past them. You Stride; this movement doesn't trigger reactions. You can Strike up to three times at any point during your movement, each against a different enemy.</p>\n<p>Each attack counts toward your multiple attack penalty, but your multiple attack penalty doesn't increase until you have made all your attacks.</p>"
        },
        "featType": {
            "value": "archetype"
        },
        "level": {
            "value": 14
        },
        "prerequisites": {
            "value": [
                {
                    "value": "Martial Artist Dedication"
                }
            ]
        },
        "rules": [],
        "source": {
            "value": "Pathfinder Advanced Player's Guide"
        },
        "traits": {
            "custom": "",
            "rarity": {
                "value": "common"
            },
            "value": [
                "archetype",
                "flourish"
            ]
        }
    },
    "effects": [],
    "flags": {},
    "img": "systems/pf2e/icons/features/feats/feats.webp",
    "name": "Path Of Iron",
    "type": "feat"
}
