{
    "_id": "HfebybiUNW8mXOfP",
    "data": {
        "actionCategory": {
            "value": ""
        },
        "actionType": {
            "value": "action"
        },
        "actions": {
            "value": 2
        },
        "description": {
            "value": "<p>You have mastered the technique of arcing a projectile so that it returns to your hand after being thrown, though this requires a moment to precisely calculate the trajectory and possible ricochets.</p>\n<p>Make a ranged Strike with a thrown weapon. Once the Strike is complete, the weapon arcs or ricochets back to your hand. If your hands are full when the weapon returns, it falls to the ground in your space.</p>"
        },
        "featType": {
            "value": "ancestry"
        },
        "level": {
            "value": 9
        },
        "prerequisites": {
            "value": []
        },
        "rules": [],
        "source": {
            "value": "Pathfinder Advanced Player's Guide"
        },
        "traits": {
            "custom": "",
            "rarity": {
                "value": "common"
            },
            "value": [
                "dwarf"
            ]
        }
    },
    "effects": [],
    "flags": {},
    "img": "systems/pf2e/icons/features/feats/feats.webp",
    "name": "Returning Throw",
    "type": "feat"
}
