{
    "_id": "SA8rnheHFtjkATrJ",
    "data": {
        "actionCategory": {
            "value": "offensive"
        },
        "actionType": {
            "value": "action"
        },
        "actions": {
            "value": 1
        },
        "description": {
            "value": "<p><strong>Requirements</strong> Your terrain attunement matches the terrain you're in and you're in Rough Terrain Stance.</p>\n<hr />\n<p>You slam your fist into the ground or twirl your arms about to cause the terrain around you to shift and ripple, potentially throwing others off balance. Each creature within your area of difficult terrain from Rough Terrain Stance must attempt a Reflex saving throw against your spell DC with the following effects.</p>\n<p>After you use this action, you can't use it again for [[/r 1d4 #rounds]]{1d4 rounds}.</p>\n<hr />\n<p><strong>Critical Success</strong> The creature is unaffected.</p>\n<p><strong>Success</strong> The creature is @Compendium[pf2e.conditionitems.Clumsy]{Clumsy 1} for 1 round.</p>\n<p><strong>Failure</strong> The creature is @Compendium[pf2e.conditionitems.Clumsy]{Clumsy 2} for 1 round.</p>\n<p><strong>Critical Failure</strong> The creature is clumsy 2 for 1 round and falls @Compendium[pf2e.conditionitems.Prone]{Prone}.</p>"
        },
        "featType": {
            "value": "archetype"
        },
        "level": {
            "value": 14
        },
        "location": "",
        "prerequisites": {
            "value": [
                {
                    "value": "Rough Terrain Stance"
                },
                {
                    "value": "master in Nature"
                }
            ]
        },
        "rules": [],
        "source": {
            "value": ""
        },
        "traits": {
            "custom": "",
            "rarity": {
                "value": "common"
            },
            "value": [
                "archetype"
            ]
        }
    },
    "effects": [],
    "flags": {},
    "img": "systems/pf2e/icons/default-icons/feat.svg",
    "name": "Shifting Terrain",
    "type": "feat"
}
