{
    "_id": "s0P4JXagA3085wLW",
    "data": {
        "actionCategory": {
            "value": ""
        },
        "actionType": {
            "value": "passive"
        },
        "actions": {
            "value": null
        },
        "description": {
            "value": "<p>When you cast black tentacles, replace the spell's standard effects with the following: Tentacles slither along the ground in the area, attempting to hinder anyone within. Sticky black tentacles attempt to Trip each creature in the area. Attempt spell attack rolls against the Reflex DCs of each affected creature. Any creature you succeed against is knocked @Compendium[pf2e.conditionitems.Prone]{Prone} and takes [[/r {3d6}[bludgeoning]]]{3d6 bludgeoning damage}. Whenever a creature ends its turn in the area, the tentacles attempt to Trip that creature if it isn't already prone, and they deal [[/r {1d6}[bludgeoning]]]{1d6 bludgeoning damage} to any creature already prone. Creatures treat the spell's area as difficult terrain.</p>"
        },
        "featType": {
            "value": "archetype"
        },
        "level": {
            "value": 10
        },
        "location": "",
        "prerequisites": {
            "value": [
                {
                    "value": "Spell Trickster Dedication"
                },
                {
                    "value": "ability to cast black tentacles"
                }
            ]
        },
        "rules": [],
        "source": {
            "value": ""
        },
        "traits": {
            "custom": "",
            "rarity": {
                "value": "common"
            },
            "value": [
                "archetype"
            ]
        }
    },
    "effects": [],
    "flags": {},
    "img": "systems/pf2e/icons/default-icons/feats.webp",
    "name": "Toppling Tentacles",
    "type": "feat"
}
