{
    "_id": "99WRahrMC91D6MMe",
    "data": {
        "actionCategory": {
            "value": ""
        },
        "actionType": {
            "value": "passive"
        },
        "actions": {
            "value": null
        },
        "description": {
            "value": "<p>As hard as most unbreakable goblins are to break, you are that much harder to break. You gain 20 Hit Points from your ancestry instead of 10. When you fall, you take no falling damage. If you have the @Compendium[pf2e.feats-srd.Bouncy Goblin]{Bouncy Goblin} feat, after falling or jumping from a height of at least 20 feet, you can bounce back into the air, up to half the distance you fell (and half as far forward if you jumped). These bounces continue until you bounce less than 20 feet.</p>"
        },
        "featType": {
            "value": "ancestry"
        },
        "level": {
            "value": 13
        },
        "prerequisites": {
            "value": [
                {
                    "value": "unbreakable goblin heritage"
                }
            ]
        },
        "rules": [
            {
                "key": "ActiveEffectLike",
                "mode": "upgrade",
                "path": "data.attributes.ancestryhp",
                "priority": 51,
                "value": 20
            }
        ],
        "source": {
            "value": "Pathfinder Lost Omens: Character Guide"
        },
        "traits": {
            "custom": "",
            "rarity": {
                "value": "common"
            },
            "value": [
                "goblin"
            ]
        }
    },
    "effects": [],
    "flags": {},
    "img": "systems/pf2e/icons/features/feats/feats.webp",
    "name": "Unbreakable-er Goblin",
    "type": "feat"
}
