{
    "_id": "4m2dQ2fvVWxtokVe",
    "data": {
        "actionCategory": {
            "value": ""
        },
        "actionType": {
            "value": "passive"
        },
        "actions": {
            "value": null
        },
        "description": {
            "value": "<p><strong>Moderate Boon (Daily)</strong>: Desna twists fortune in your favor.</p>\n<p>Once per day, after determining the result of a check, you can reroll the check and take the new result.</p>"
        },
        "featType": {
            "value": "deityboon"
        },
        "level": {
            "value": 0
        },
        "prerequisites": {
            "value": []
        },
        "rules": [],
        "source": {
            "value": ""
        },
        "traits": {
            "custom": "",
            "rarity": {
                "value": "common"
            },
            "value": []
        }
    },
    "effects": [],
    "flags": {},
    "img": "systems/pf2e/icons/deity/Desna.webp",
    "name": "Desna - Moderate Boon",
    "type": "feat"
}
