{
    "_id": "M78A7uQaa4Ig8pGU",
    "data": {
        "actionCategory": {
            "value": ""
        },
        "actionType": {
            "value": "passive"
        },
        "actions": {
            "value": null
        },
        "description": {
            "value": "<p><strong>Major Curse</strong>: You are unable to keep up with the rigors of combat. The moment a combat breaks out, you become @Compendium[pf2e.conditionitems.Fatigued]{Fatigued} and @Compendium[pf2e.conditionitems.Slowed]{Slowed 1}. At the end of each of your turns, your @Compendium[pf2e.conditionitems.Slowed]{Slowed} condition increases by 1. These conditions end only when you are no longer in combat.</p>"
        },
        "featType": {
            "value": "curse"
        },
        "level": {
            "value": 0
        },
        "prerequisites": {
            "value": []
        },
        "rules": [],
        "source": {
            "value": ""
        },
        "traits": {
            "custom": "",
            "rarity": {
                "value": "common"
            },
            "value": []
        }
    },
    "effects": [],
    "flags": {},
    "img": "systems/pf2e/icons/deity/Gorum.webp",
    "name": "Gorum - Major Curse",
    "type": "feat"
}
