{
    "_id": "xrczhivVmi7MrEfz",
    "data": {
        "actionCategory": {
            "value": ""
        },
        "actionType": {
            "value": "passive"
        },
        "actions": {
            "value": null
        },
        "description": {
            "value": "<p>Your body rebuilds after adversity, becoming stronger. You can cast <em>@Compendium[pf2e.spells-srd.Wholeness of Body]{Wholeness of Body}</em> as an occult ki spell. If you didn't have one already, you gain a focus pool with 1 Focus Point and are trained in occult spell attack rolls and spell DCs.</p>"
        },
        "featType": {
            "value": "deityboon"
        },
        "level": {
            "value": 0
        },
        "prerequisites": {
            "value": []
        },
        "rules": [],
        "source": {
            "value": ""
        },
        "traits": {
            "custom": "",
            "rarity": {
                "value": "common"
            },
            "value": []
        }
    },
    "effects": [],
    "flags": {},
    "img": "systems/pf2e/icons/deity/Irori.webp",
    "name": "Irori - Moderate Boon",
    "type": "feat"
}
