{
    "_id": "KxpaxUSuBC7hr4F7",
    "data": {
        "actionCategory": {
            "value": ""
        },
        "actionType": {
            "value": "passive"
        },
        "actions": {
            "value": null
        },
        "description": {
            "value": "<p>You execute your finishing moves with spectacular flair, adding special effects to your finishers. If a Strike you make as part of a finisher hits a foe, you add one of the following effects to the Strike, depending on your swashbuckler's style.</p>\n<ul>\n<li><strong>Battledancer:</strong> You can Step as a free action immediately after the finisher.</li>\n<li><strong>Braggart:</strong> If the foe was temporarily immune to your @Compendium[pf2e.actionspf2e.Demoralize]{Demoralize}, their temporary immunity ends.</li>\n<li><strong>Fencer</strong>: The foe is @Compendium[pf2e.conditionitems.Flat-Footed]{Flat-Footed} until your next turn.</li>\n<li><strong>Gymnast:</strong> If the foe is @Compendium[pf2e.conditionitems.Grabbed]{Grabbed}, @Compendium[pf2e.conditionitems.Restrained]{Restrained}, or @Compendium[pf2e.conditionitems.Prone]{Prone}, you gain a circumstance bonus to the damage roll equal to twice the number of weapon damage dice.</li>\n<li><strong>Wit:</strong> The foe takes a -2 circumstance penalty to attack rolls against you until the start of your next turn.</li>\n</ul>"
        },
        "featType": {
            "value": "classfeature"
        },
        "level": {
            "value": 9
        },
        "location": "",
        "prerequisites": {
            "value": []
        },
        "rules": [],
        "source": {
            "value": ""
        },
        "traits": {
            "custom": "",
            "rarity": {
                "value": "common"
            },
            "value": [
                "swashbuckler"
            ]
        }
    },
    "effects": [],
    "flags": {},
    "img": "systems/pf2e/icons/features/classes/exemplary-finisher.webp",
    "name": "Exemplary Finisher",
    "type": "feat"
}
