{
    "_id": "qC0Iz6SlG2i9gv6g",
    "data": {
        "actionCategory": {
            "value": ""
        },
        "actionType": {
            "value": "passive"
        },
        "actions": {
            "value": null
        },
        "description": {
            "value": "<p>When using @Compendium[pf2e.classfeatures.Advanced Alchemy]{Advanced Alchemy} to make elixirs of life during your daily preparations, you can create three elixirs with each batch of @Compendium[pf2e.classfeatures.Infused Reagents]{reagents} instead of two.</p>"
        },
        "featType": {
            "value": "classfeature"
        },
        "level": {
            "value": 5
        },
        "location": "",
        "prerequisites": {
            "value": []
        },
        "rules": [
            {
                "key": "ActiveEffectLike",
                "mode": "override",
                "path": "data.crafting.entries.alchemist.fieldDiscovery",
                "value": "elixir"
            }
        ],
        "source": {
            "value": ""
        },
        "traits": {
            "custom": "",
            "rarity": {
                "value": "common"
            },
            "value": [
                "alchemist"
            ]
        }
    },
    "effects": [],
    "flags": {},
    "img": "systems/pf2e/icons/features/classes/field-discovery-chirurgeon.webp",
    "name": "Field Discovery (Chirurgeon)",
    "type": "feat"
}
