{
    "_id": "6AqH5SGchbdhOJxA",
    "data": {
        "ability": {
            "value": ""
        },
        "area": {
            "areaType": "burst",
            "value": "20"
        },
        "autoHeightenLevel": {
            "value": null
        },
        "category": {
            "value": "spell"
        },
        "components": {
            "focus": false,
            "material": true,
            "somatic": true,
            "verbal": true
        },
        "cost": {
            "value": ""
        },
        "damage": {
            "applyMod": false,
            "value": {
                "0": {
                    "applyMod": false,
                    "type": {
                        "subtype": "",
                        "value": "poison"
                    },
                    "value": "2d6"
                }
            }
        },
        "description": {
            "value": "<p>Sending magic deep underground, you conjure a cloud of toxic gases that swiftly degenerate into volatile fumes. The gases are invisible, requiring a successful Perception check against your spell DC to detect visually, though their acrid smell and toxic effects are clear once a creature has entered the cloud. A creature that enters the cloud or is within the cloud at the start of its turn takes 2d6 poison damage. A creature can take the poison damage from <em>flammable fumes</em> only once per round.</p>\n<p>One round after you conjure the cloud, the gases loses stability and become flammable. If an open flame is brought into the cloud, or if anyone within the area uses a fire effect, the cloud detonates in a massive blaze that deals [[/r {10d6}[fire]]]{10d6 fire damage} to all creatures within it, and the spell ends.</p>\n<hr />\n<p><strong>Heightened (+2)</strong> The poison damage increases by 1d6 and the fire damage on an explosion increases by 2d6.</p>"
        },
        "duration": {
            "value": "1 minute"
        },
        "hasCounteractCheck": {
            "value": false
        },
        "level": {
            "value": 5
        },
        "location": {
            "value": ""
        },
        "materials": {
            "value": ""
        },
        "range": {
            "value": "120 feet"
        },
        "rules": [],
        "save": {
            "basic": "",
            "value": ""
        },
        "scaling": {
            "damage": {
                "0": "1d6"
            },
            "interval": 2
        },
        "school": {
            "value": "conjuration"
        },
        "source": {
            "value": "Pathfinder Secrets of Magic"
        },
        "spellType": {
            "value": "utility"
        },
        "sustained": {
            "value": false
        },
        "target": {
            "value": ""
        },
        "time": {
            "value": "3"
        },
        "traditions": {
            "custom": "",
            "value": [
                "arcane",
                "primal"
            ]
        },
        "traits": {
            "custom": "",
            "rarity": {
                "value": "common"
            },
            "value": [
                "poison"
            ]
        }
    },
    "effects": [],
    "flags": {},
    "img": "systems/pf2e/icons/spells/flammable-fumes.webp",
    "name": "Flammable Fumes",
    "type": "spell"
}
