{
    "_id": "pZc8ZwtsyWnxUUW0",
    "data": {
        "ability": {
            "value": ""
        },
        "area": {
            "value": ""
        },
        "areasize": {
            "value": ""
        },
        "category": {
            "value": "ritual"
        },
        "components": {
            "material": false,
            "somatic": false,
            "verbal": false
        },
        "cost": {
            "value": "faerie circle ingredients worth a total value of 1 gp × the spell level × the target's level"
        },
        "damage": {
            "value": {}
        },
        "description": {
            "value": "<p>This functions as <em>@Compendium[pf2e.spells-srd.Planar Ally]{Planar Ally}</em> except you craft a faerie circle and call an animal, beast, fey, fungus, or plant from within 100 miles.</p>"
        },
        "duration": {
            "value": "see text"
        },
        "hasCounteractCheck": {
            "value": false
        },
        "level": {
            "value": 6
        },
        "location": {
            "value": ""
        },
        "materials": {
            "value": ""
        },
        "prepared": {
            "value": ""
        },
        "primarycheck": {
            "value": "Nature (master)"
        },
        "range": {
            "value": "100 miles"
        },
        "rules": [],
        "save": {
            "basic": "",
            "value": ""
        },
        "school": {
            "value": "abjuration"
        },
        "secondarycasters": {
            "value": "4"
        },
        "secondarycheck": {
            "value": "Crafting, Diplomacy, Survival"
        },
        "source": {
            "value": "Pathfinder Core Rulebook"
        },
        "spellType": {
            "value": "utility"
        },
        "sustained": {
            "value": false
        },
        "target": {
            "value": "1 animal, beast, fey, fungus, or plant"
        },
        "time": {
            "value": "1 day"
        },
        "traditions": {
            "value": []
        },
        "traits": {
            "custom": "",
            "rarity": {
                "value": "uncommon"
            },
            "value": []
        }
    },
    "effects": [],
    "flags": {},
    "img": "systems/pf2e/icons/spells/primal-call.webp",
    "name": "Primal Call",
    "type": "spell"
}
