{
    "_id": "0xR9vrt6uDFl0Umo",
    "data": {
        "ability": {
            "value": ""
        },
        "area": {
            "areaType": "",
            "value": null
        },
        "areasize": {
            "value": ""
        },
        "category": {
            "value": "focus"
        },
        "components": {
            "material": false,
            "somatic": true,
            "verbal": true
        },
        "cost": {
            "value": ""
        },
        "damage": {
            "value": {}
        },
        "description": {
            "value": "<p>You morph your body based on your training, choosing one of the following effects based on your wild order feats.</p>\n<ul>\n<li>If you have @Compendium[pf2e.feats-srd.Wild Shape]{Wild Shape}, you can morph your hands into@Compendium[pf2e.spell-effects.Spell Effect: Wild Morph (Wild Claws)]{wild claws}. Your hands transform into incredibly sharp claws. These claws are an unarmed attack you're trained in and deal 1d6 slashing damage each (agile, finesse). You can still hold and use items with your hands while they're transformed by this spell, but you cannot hold an item while attacking. If you have @Compendium[pf2e.feats-srd.Insect Shape]{Insect Shape}, you can instead transform your mouth into @Compendium[pf2e.spell-effects.Spell Effect: Wild Morph (Wild Jaws)]{wild jaws}, an unarmed attack you're trained in that deals 1d8 piercing damage.</li>\n<li>If you have @Compendium[pf2e.feats-srd.Elemental Shape]{Elemental Shape}, you can morph your body to be partially composed of elemental matter, granting you resistance 5 to critical hits and precision damage.</li>\n<li>If you have @Compendium[pf2e.feats-srd.Plant Shape]{Plant Shape}, you can morph your arms into long vines, increasing your reach to 10 feet (or 15 feet with a reach weapon).</li>\n<li>If you have @Compendium[pf2e.feats-srd.Soaring Shape]{Soaring Shape}, you can cast the spell as a two-action activity (<span class=\"pf2-icon\">2</span> <strong>somatic, verbal</strong>) to grow @Compendium[pf2e.spell-effects.Spell Effect: Wild Morph (Wings)]{wings} from your back. These wings allow you to fly with a fly Speed of 30 feet.</li>\n</ul>\n<hr />\n<p><strong>Heightened (6th)</strong> You can choose up to two of the effects from the list. Wild claws leave terrible, ragged wounds that also deal [[/r {2d6}[persistent,bleed]]] @Compendium[pf2e.conditionitems.Persistent Damage]{Persistent Bleed Damage} on a hit, and wild jaws are envenomed, also dealing [[/r {2d6}[persistent,poison]]] @Compendium[pf2e.conditionitems.Persistent Damage]{Persistent Poison Damage} on a hit.</p>\n<p><strong>Heightened (10th)</strong> You can choose up to three of the effects from the list. Wild claws deal [[/r {4d6}[persistent,bleed]]] @Compendium[pf2e.conditionitems.Persistent Damage]{Persistent Bleed Damage} on a hit, and wild jaws deal [[/r {4d6}[persistent,poison]]] @Compendium[pf2e.conditionitems.Persistent Damage]{Persistent Poison Damage} on a hit.</p>"
        },
        "duration": {
            "value": "1 minute"
        },
        "hasCounteractCheck": {
            "value": false
        },
        "level": {
            "value": 1
        },
        "location": {
            "value": ""
        },
        "materials": {
            "value": ""
        },
        "prepared": {
            "value": ""
        },
        "primarycheck": {
            "value": ""
        },
        "range": {
            "value": ""
        },
        "rules": [],
        "save": {
            "basic": "",
            "value": ""
        },
        "school": {
            "value": "transmutation"
        },
        "secondarycasters": {
            "value": ""
        },
        "secondarycheck": {
            "value": ""
        },
        "source": {
            "value": "Pathfinder Core Rulebook"
        },
        "spellType": {
            "value": "utility"
        },
        "sustained": {
            "value": false
        },
        "target": {
            "value": ""
        },
        "time": {
            "value": "2"
        },
        "traditions": {
            "value": []
        },
        "traits": {
            "custom": "",
            "rarity": {
                "value": "uncommon"
            },
            "value": [
                "druid",
                "morph"
            ]
        }
    },
    "effects": [],
    "flags": {},
    "img": "systems/pf2e/icons/spells/wild-morph.webp",
    "name": "Wild Morph",
    "type": "spell"
}
