{
    "_id": "KXO4CUklzuJ0tZnw",
    "data": {
        "actionCategory": {
            "value": ""
        },
        "actionType": {
            "value": "passive"
        },
        "actions": {
            "value": null
        },
        "description": {
            "value": "<p><strong>[Slotless]</strong></p>\n<p><strong>Prerequisites</strong><strong>:</strong> Tier 0 with any faction</p>\n<p><strong>Cost</strong>: 0 Fame</p>\n<p><strong>Effect</strong>: Whether it's because you grew up there or have since learned to call it home, one nation is especially familiar to you. Choose one nation (such as Varisia or Taldor) when you purchase this boon. For the purpose of fulfilling prerequisites and Access conditions for uncommon character options, you are treated as being from that nation as well as the larger region in which it's found (such as the Saga Lands for Varisia or the Shining Kingdoms for Taldor).</p>\n<p><strong>Special</strong>: You can purchase this boon multiple times, but each time you purchase it, you lose your previous home region in order to become so familiar with a new one. Before doing so, you must retrain any options that listed being from the previous home region as a prerequisite, and any options to which you would no longer have access.</p>\n<p><strong>Achievement Points</strong>: The World Traveler boon, accessible with Achievement Points, grants similar access to an entire region, providing an additional avenue to access region- and nation-based options.</p>"
        },
        "featType": {
            "value": "pfsboon"
        },
        "level": {
            "value": 0
        },
        "prerequisites": {
            "value": []
        },
        "rules": [],
        "source": {
            "value": ""
        },
        "traits": {
            "custom": "",
            "rarity": {
                "value": "common"
            },
            "value": []
        }
    },
    "effects": [],
    "flags": {},
    "img": "systems/pf2e/icons/default-icons/mystery-man.webp",
    "name": "Home Region",
    "type": "feat"
}
