{
    "_id": "J1hUP5SI4MJvlK36",
    "data": {
        "actionCategory": {
            "value": ""
        },
        "actionType": {
            "value": "passive"
        },
        "actions": {
            "value": null
        },
        "description": {
            "value": "<p><strong>[Social][Mentor]</strong></p>\n<p><strong>Prerequisites</strong>: Tier 1 with the Envoy's Alliance</p>\n<p><strong>Cost</strong>: 2 Fame</p>\n<p><strong>Effect</strong>: While working with less experienced Pathfinder allies, you provide vital advice to sharpen your newer colleagues' skills. For any PCs benefiting from a Level Bump and whose levels are lower than yours, you increase the Level Bump's modifier to skill checks to 2.</p>\n<p><strong>Normal</strong>: A Level Bump increases a PC's skill check modifiers by 1.</p>\n<p><strong>Special</strong>: A PC can only benefit from two mentor boons.</p>\n<p>@Compendium[pf2e.feat-effects.Effect: Skillful Mentor Boon (PFS)]{Effect: Skillful Mentor Boon (PFS)}</p>"
        },
        "featType": {
            "value": "pfsboon"
        },
        "level": {
            "value": 0
        },
        "location": "",
        "prerequisites": {
            "value": []
        },
        "rules": [],
        "source": {
            "value": ""
        },
        "traits": {
            "custom": "",
            "rarity": {
                "value": "common"
            },
            "value": []
        }
    },
    "effects": [],
    "flags": {},
    "img": "systems/pf2e/icons/default-icons/mystery-man.webp",
    "name": "Mentor, Skillful",
    "type": "feat"
}
