{
    "_id": "4HJJdogS751Z04lD",
    "data": {
        "description": {
            "value": "<p>The creature takes a -2 circumstance penalty to the triggering skill check.</p>"
        },
        "duration": {
            "expiry": "turn-start",
            "sustained": false,
            "unit": "unlimited",
            "value": -1
        },
        "level": {
            "value": 7
        },
        "rules": [
            {
                "key": "FlatModifier",
                "selector": "skill-check",
                "type": "circumstance",
                "value": -2
            }
        ],
        "source": {
            "value": "Pathfinder Bestiary"
        },
        "start": {
            "initiative": null,
            "value": 0
        },
        "target": null,
        "tokenIcon": {
            "show": true
        },
        "traits": {
            "custom": "",
            "rarity": {
                "value": "common"
            },
            "value": []
        }
    },
    "effects": [],
    "flags": {},
    "img": "systems/pf2e/icons/unarmed-attacks/tail.webp",
    "name": "Effect: Tail Lash (Skill Check)",
    "type": "effect"
}
