{
    "_id": "K3r1lfbtCTf3dFhV",
    "data": {
        "description": {
            "value": "<p>The creature takes a -10-foot circumstance penalty to its Speeds.</p>"
        },
        "duration": {
            "expiry": "turn-start",
            "sustained": false,
            "unit": "unlimited",
            "value": -1
        },
        "level": {
            "value": 1
        },
        "rules": [
            {
                "key": "FlatModifier",
                "selector": "speed",
                "type": "circumstance",
                "value": -10
            }
        ],
        "source": {
            "value": "Pathfinder Bestiary 3"
        },
        "start": {
            "initiative": null,
            "value": 0
        },
        "target": null,
        "tokenIcon": {
            "show": true
        },
        "traits": {
            "custom": "",
            "rarity": {
                "value": "common"
            },
            "value": []
        }
    },
    "effects": [],
    "flags": {},
    "img": "systems/pf2e/icons/equipment/weapons/filchers-fork.webp",
    "name": "Effect: Stick a Fork in It",
    "type": "effect"
}
